<svg xmlns="http://www.w3.org/2000/svg" xmlns:xlink="http://www.w3.org/1999/xlink" width="646.57" height="306.201" viewBox="0 0 646.57 306.201">
  <defs>
    <clipPath id="clip-path">
      <rect id="Rectangle_1345" data-name="Rectangle 1345" width="646.57" height="184.996" fill="none" stroke="#707070" stroke-width="2"/>
    </clipPath>
    <clipPath id="clip-path-2">
      <rect id="Rectangle_1346" data-name="Rectangle 1346" width="133.442" height="121.205" fill="none"/>
    </clipPath>
  </defs>
  <g id="Group_3891" data-name="Group 3891" transform="translate(0 -454.879)">
    <g id="Group_3797" data-name="Group 3797" transform="translate(0 576.084)">
      <g id="Group_3796" data-name="Group 3796" clip-path="url(#clip-path)">
        <rect id="Rectangle_1340" data-name="Rectangle 1340" width="326.033" height="36.633" transform="translate(0.916 0.916)" fill="none" stroke="#d89000" stroke-miterlimit="10" stroke-width="2"/>
        <rect id="Rectangle_1341" data-name="Rectangle 1341" width="388.309" height="36.633" transform="translate(0.916 37.549)" fill="none" stroke="#d89000" stroke-miterlimit="10" stroke-width="2"/>
        <rect id="Rectangle_1342" data-name="Rectangle 1342" width="461.574" height="36.633" transform="translate(0.916 74.182)" fill="none" stroke="#d89000" stroke-miterlimit="10" stroke-width="2"/>
        <rect id="Rectangle_1343" data-name="Rectangle 1343" width="549.493" height="36.633" transform="translate(0.916 110.814)" fill="none" stroke="#d89000" stroke-miterlimit="10" stroke-width="2"/>
        <rect id="Rectangle_1344" data-name="Rectangle 1344" width="644.739" height="36.633" transform="translate(0.916 147.447)" fill="none" stroke="#d89000" stroke-miterlimit="10" stroke-width="2"/>
      </g>
    </g>
    <g id="Group_3799" data-name="Group 3799" transform="translate(46 454.879)">
      <g id="Group_3798" data-name="Group 3798" clip-path="url(#clip-path-2)">
        <line id="Line_233" data-name="Line 233" y1="101.064" transform="translate(67.049 20.141)" fill="none" stroke="#cf9303" stroke-miterlimit="10" stroke-width="2"/>
        <path id="Path_13986" data-name="Path 13986" d="M67.049.723s-36.176,34.651,0,58.827" fill="none" stroke="#cf9303" stroke-miterlimit="10" stroke-width="2"/>
        <path id="Path_13987" data-name="Path 13987" d="M65.992,1.314s36.176,34.651,0,58.827" fill="none" stroke="#cf9303" stroke-miterlimit="10" stroke-width="2"/>
        <path id="Path_13988" data-name="Path 13988" d="M67.049,103.013l-7.364-8.552a40.7,40.7,0,0,0-21.73-13.11l-35.73-8.21s21-17,37-12,8.34,23.476,8.34,23.476" fill="none" stroke="#cf9303" stroke-miterlimit="10" stroke-width="2"/>
        <path id="Path_13989" data-name="Path 13989" d="M66.392,103.043l7.364-8.552A40.71,40.71,0,0,1,95.486,81.38l35.73-8.209s-21-17-37-12-8.34,23.476-8.34,23.476" fill="none" stroke="#cf9303" stroke-miterlimit="10" stroke-width="2"/>
      </g>
    </g>
  </g>
</svg>
