<svg xmlns="http://www.w3.org/2000/svg" width="33.4" height="37.101" viewBox="0 0 33.4 37.101">
  <text id="_" data-name=" " transform="matrix(-0.759, -0.651, 0.651, -0.759, 24.942, 15.077)" fill="#fff" font-size="42" font-family="Branch-Regular, Branch"><tspan x="0" y="0"> </tspan></text>
</svg>
