<svg xmlns="http://www.w3.org/2000/svg" width="369.32" height="121.202" viewBox="0 0 369.32 121.202">
  <g id="Group_3901" data-name="Group 3901" transform="translate(-20.383 -1291.431)">
    <path id="Path_14148" data-name="Path 14148" d="M120.676,0H37.161A37.161,37.161,0,0,0,0,37.162V63.1" transform="translate(389.203 1354.535) rotate(180)" fill="none" stroke="#cf9303" stroke-miterlimit="10" stroke-width="1"/>
    <path id="Path_14149" data-name="Path 14149" d="M255.221,0H37.161A37.161,37.161,0,0,0,0,37.162V58.1" transform="translate(20.883 1354.535)" fill="none" stroke="#cf9303" stroke-miterlimit="10" stroke-width="1"/>
  </g>
</svg>
