<svg xmlns="http://www.w3.org/2000/svg" xmlns:xlink="http://www.w3.org/1999/xlink" width="396.809" height="1189.398" viewBox="0 0 396.809 1189.398">
  <defs>
    <linearGradient id="linear-gradient" x1="0.877" y1="0.197" x2="0.16" y2="0.89" gradientUnits="objectBoundingBox">
      <stop offset="0" stop-color="#ceb772"/>
      <stop offset="1" stop-color="#9f8844"/>
    </linearGradient>
    <clipPath id="clip-path">
      <rect id="Rectangle_537" data-name="Rectangle 537" width="60.45" height="72" fill="none"/>
    </clipPath>
    <clipPath id="clip-path-2">
      <path id="Path_14102" data-name="Path 14102" d="M23.651,30.584a6.933,6.933,0,1,0,6.933-6.933,6.932,6.932,0,0,0-6.933,6.933" transform="translate(-23.651 -23.651)" fill="url(#linear-gradient)"/>
    </clipPath>
  </defs>
  <g id="Group_4004" data-name="Group 4004" transform="translate(0.653 -425.102)">
    <path id="Path_14091" data-name="Path 14091" d="M967.691,629.461H797.3c-27.643,0-50.05,23.807-50.05,53.175V848.863" transform="translate(-600.393 1422.25) rotate(-90)" fill="none" stroke="#cf9303" stroke-miterlimit="10" stroke-width="1"/>
    <path id="Path_14169" data-name="Path 14169" d="M747.248,629.461H917.641c27.643,0,50.05,23.807,50.05,53.175V973.529" transform="translate(-572.035 45.541)" fill="none" stroke="#cf9303" stroke-miterlimit="10" stroke-width="1"/>
    <path id="Path_14170" data-name="Path 14170" d="M220.443,219.4H50.05C22.408,219.4,0,195.595,0,166.227V0" transform="translate(248.471 1079.559) rotate(90)" fill="none" stroke="#cf9303" stroke-miterlimit="10" stroke-width="1"/>
    <path id="Path_14171" data-name="Path 14171" d="M747.248,973.529H917.641c27.643,0,50.05-23.807,50.05-53.175V629.461" transform="translate(-572.035 106.029)" fill="none" stroke="#cf9303" stroke-miterlimit="10" stroke-width="1"/>
    <path id="Path_14172" data-name="Path 14172" d="M967.691,629.461H797.3c-27.643,0-50.05,23.807-50.05,53.175V848.863" transform="translate(-600.393 2108.357) rotate(-90)" fill="none" stroke="#cf9303" stroke-miterlimit="10" stroke-width="1"/>
    <path id="Path_14173" data-name="Path 14173" d="M747.248,629.461H917.641c27.643,0,50.05,23.807,50.05,53.175v56.432" transform="translate(-572.035 731.648)" fill="none" stroke="#cf9303" stroke-miterlimit="10" stroke-width="1"/>
    <g id="Group_729" data-name="Group 729" transform="translate(173.252 1542.5)">
      <g id="Group_728" data-name="Group 728" clip-path="url(#clip-path)">
        <path id="Path_819" data-name="Path 819" d="M53.046,72.038A35.557,35.557,0,0,0,50.72,1V64.684h.352A28.13,28.13,0,0,0,50.72,8.427" transform="translate(-26.308 -0.519)" fill="none" stroke="#c89533" stroke-miterlimit="10" stroke-width="1"/>
        <path id="Path_820" data-name="Path 820" d="M50.294,56.191A18.3,18.3,0,1,1,32,37.893a18.3,18.3,0,0,1,18.3,18.3" transform="translate(-7.105 -19.655)" fill="#0b6473"/>
        <circle id="Ellipse_44" data-name="Ellipse 44" cx="3.882" cy="3.882" r="3.882" transform="translate(8.244 10.986)" fill="none" stroke="#c89533" stroke-miterlimit="10" stroke-width="1"/>
        <path id="Path_821" data-name="Path 821" d="M20.8,101.276a9.9,9.9,0,1,1-9.9-9.9A9.9,9.9,0,0,1,20.8,101.276Z" transform="translate(-0.519 -47.397)" fill="none" stroke="#c89533" stroke-miterlimit="10" stroke-width="1"/>
      </g>
    </g>
    <path id="Path_14174" data-name="Path 14174" d="M804.95,973.529H917.641c27.643,0,50.05-23.807,50.05-53.175V849.83" transform="translate(-572.035 604.971)" fill="none" stroke="#cf9303" stroke-miterlimit="10" stroke-width="1"/>
    <g id="Group_3863" data-name="Group 3863" transform="translate(-151.846 156.531)">
      <circle id="Ellipse_43" data-name="Ellipse 43" cx="22.248" cy="22.248" r="22.248" transform="translate(151.846 286.251) rotate(-22.5)" fill="none" stroke="#c89533" stroke-miterlimit="10" stroke-width="1"/>
      <g id="Group_3989" data-name="Group 3989" transform="translate(150.33 267.709)">
        <g id="Group_3869" data-name="Group 3869" transform="translate(23.651 23.651)" clip-path="url(#clip-path-2)">
          <rect id="Rectangle_1399" data-name="Rectangle 1399" width="13.865" height="13.865" transform="translate(0 0)" fill="url(#linear-gradient)"/>
        </g>
      </g>
    </g>
  </g>
</svg>
