<svg xmlns="http://www.w3.org/2000/svg" xmlns:xlink="http://www.w3.org/1999/xlink" width="65.302" height="65.302" viewBox="0 0 65.302 65.302">
  <defs>
    <linearGradient id="linear-gradient" x1="0.877" y1="0.197" x2="0.16" y2="0.89" gradientUnits="objectBoundingBox">
      <stop offset="0" stop-color="#ceb772"/>
      <stop offset="1" stop-color="#9f8844"/>
    </linearGradient>
    <clipPath id="clip-path">
      <path id="Path_14102" data-name="Path 14102" d="M23.651,32.651a9,9,0,1,0,9-9,9,9,0,0,0-9,9" fill="url(#linear-gradient)"/>
    </clipPath>
    <clipPath id="clip-path-2">
      <rect id="Rectangle_1400" data-name="Rectangle 1400" width="65.302" height="65.302" transform="translate(0 0)" fill="none"/>
    </clipPath>
  </defs>
  <g id="Group_3918" data-name="Group 3918" transform="translate(-717.697 -1179)">
    <g id="Group_3870" data-name="Group 3870" transform="translate(717.697 1179)">
      <g id="Group_3869" data-name="Group 3869" clip-path="url(#clip-path)">
        <rect id="Rectangle_1399" data-name="Rectangle 1399" width="18" height="18" transform="translate(23.651 23.651)" fill="url(#linear-gradient)"/>
      </g>
    </g>
    <g id="Group_3872" data-name="Group 3872" transform="translate(717.697 1179)">
      <g id="Group_3871" data-name="Group 3871" clip-path="url(#clip-path-2)">
        <circle id="Ellipse_116" data-name="Ellipse 116" cx="31.651" cy="31.651" r="31.651" transform="translate(1 1)" fill="none" stroke="#cf9303" stroke-miterlimit="10" stroke-width="2"/>
      </g>
    </g>
  </g>
</svg>
