<svg xmlns="http://www.w3.org/2000/svg" xmlns:xlink="http://www.w3.org/1999/xlink" width="363" height="168" viewBox="0 0 363 168">
  <defs>
    <clipPath id="clip-path">
      <rect id="Rectangle_1538" data-name="Rectangle 1538" width="363" height="168" transform="translate(24 115)" fill="#fff" stroke="#707070" stroke-width="1"/>
    </clipPath>
    <linearGradient id="linear-gradient" x1="0.5" x2="0.5" y2="1" gradientUnits="objectBoundingBox">
      <stop offset="0" stop-color="#007a79"/>
      <stop offset="1" stop-color="#003e40"/>
    </linearGradient>
    <clipPath id="clip-path-2">
      <rect id="Rectangle_1345" data-name="Rectangle 1345" width="314.152" height="89.885" fill="none" stroke="#707070" stroke-width="2"/>
    </clipPath>
    <clipPath id="clip-path-3">
      <rect id="Rectangle_1346" data-name="Rectangle 1346" width="64.836" height="58.89" fill="none"/>
    </clipPath>
  </defs>
  <g id="Mask_Group_3508" data-name="Mask Group 3508" transform="translate(-24 -115)" clip-path="url(#clip-path)">
    <rect id="Rectangle_1494" data-name="Rectangle 1494" width="411" height="867" transform="translate(410 867) rotate(180)" fill="url(#linear-gradient)"/>
    <g id="Group_4003" data-name="Group 4003">
      <g id="Group_3797" data-name="Group 3797" transform="translate(26.848 181.387)">
        <g id="Group_3796" data-name="Group 3796" clip-path="url(#clip-path-2)">
          <path id="Rectangle_1340" data-name="Rectangle 1340" d="M-1-1H158.383V17.771H-1Zm158.411.972H-.028V16.8H157.411Z" transform="translate(0.959 0.959)" fill="#d89000"/>
          <path id="Rectangle_1341" data-name="Rectangle 1341" d="M-1-1H188.641V17.771H-1Zm188.669.972H-.028V16.8h187.7Z" transform="translate(0.959 18.758)" fill="#d89000"/>
          <path id="Rectangle_1342" data-name="Rectangle 1342" d="M-1-1H224.239V17.771H-1Zm224.267.972H-.028V16.8h223.3Z" transform="translate(0.959 36.557)" fill="#d89000"/>
          <path id="Rectangle_1343" data-name="Rectangle 1343" d="M-1-1H266.957V17.771H-1Zm266.985.972H-.028V16.8H265.985Z" transform="translate(0.959 54.356)" fill="#d89000"/>
          <path id="Rectangle_1344" data-name="Rectangle 1344" d="M-1-1H313.234V17.771H-1Zm313.262.972H-.028V16.8h312.29Z" transform="translate(0.959 72.155)" fill="#d89000"/>
        </g>
      </g>
      <g id="Group_3799" data-name="Group 3799" transform="translate(49.198 122.496)">
        <g id="Group_3798" data-name="Group 3798" clip-path="url(#clip-path-3)">
          <path id="Line_233" data-name="Line 233" d="M-.028,49.1H-1V0h.972Z" transform="translate(33.092 9.786)" fill="#cf9303"/>
          <path id="Path_13986" data-name="Path 13986" d="M58,29.338c-4.891-3.269-7.574-7.247-7.975-11.823a16.186,16.186,0,0,1,.907-6.645A25.722,25.722,0,0,1,53.686,5.3,31.854,31.854,0,0,1,57.933,0l.672.7L58.269.352,58.605.7A31.509,31.509,0,0,0,54.49,5.844,24.718,24.718,0,0,0,51.845,11.2a15.214,15.214,0,0,0-.853,6.235,12.424,12.424,0,0,0,1.939,5.632,19.1,19.1,0,0,0,5.608,5.464Z" transform="translate(-25.692 0)" fill="#cf9303"/>
          <path id="Path_13987" data-name="Path 13987" d="M65.906,29.929l-.54-.808a19.1,19.1,0,0,0,5.608-5.464,12.424,12.424,0,0,0,1.939-5.632,15.215,15.215,0,0,0-.853-6.235,24.718,24.718,0,0,0-2.645-5.355A31.509,31.509,0,0,0,65.3,1.294l.672-.7a31.855,31.855,0,0,1,4.247,5.3,25.722,25.722,0,0,1,2.756,5.573,16.187,16.187,0,0,1,.907,6.645C73.481,22.683,70.8,26.661,65.906,29.929Z" transform="translate(-33.572 -0.304)" fill="#cf9303"/>
          <path id="Path_13988" data-name="Path 13988" d="M32.209,80.816l-3.578-4.155a19.29,19.29,0,0,0-10.3-6.213L0,66.235l.775-.628a37.125,37.125,0,0,1,6.162-3.883,24.98,24.98,0,0,1,5.932-2.159,12.5,12.5,0,0,1,6.334.126,7.07,7.07,0,0,1,4.567,3.723,7.934,7.934,0,0,1,.7,2.886,11.9,11.9,0,0,1-.157,2.676,14.646,14.646,0,0,1-.634,2.462q.407.221.8.46a20.231,20.231,0,0,1,4.887,4.128l3.578,4.155ZM2.2,65.745,18.55,69.5A20.224,20.224,0,0,1,22.8,70.991a13.881,13.881,0,0,0,.553-2.2,8.7,8.7,0,0,0-.468-4.971,6.141,6.141,0,0,0-3.975-3.2,11.547,11.547,0,0,0-5.843-.1,24.016,24.016,0,0,0-5.7,2.077A37.858,37.858,0,0,0,2.2,65.745Z" transform="translate(0 -30.448)" fill="#cf9303"/>
          <path id="Path_13989" data-name="Path 13989" d="M66.371,80.846l-.736-.634,3.578-4.155A20.232,20.232,0,0,1,74.1,71.929q.4-.24.8-.461a14.647,14.647,0,0,1-.634-2.462,11.9,11.9,0,0,1-.157-2.676,7.935,7.935,0,0,1,.7-2.886,7.07,7.07,0,0,1,4.567-3.723A12.5,12.5,0,0,1,85.71,59.6a24.98,24.98,0,0,1,5.932,2.159A37.126,37.126,0,0,1,97.8,65.637l.775.628L80.247,70.477a19.294,19.294,0,0,0-10.3,6.214ZM82.607,60.224a9.823,9.823,0,0,0-2.94.424,6.141,6.141,0,0,0-3.975,3.2,8.7,8.7,0,0,0-.468,4.971,13.88,13.88,0,0,0,.553,2.2A20.23,20.23,0,0,1,80.03,69.53l16.345-3.755a37.89,37.89,0,0,0-5.183-3.16A23.981,23.981,0,0,0,85.5,60.544,14.073,14.073,0,0,0,82.607,60.224Z" transform="translate(-33.744 -30.463)" fill="#cf9303"/>
        </g>
      </g>
    </g>
  </g>
</svg>
