<svg xmlns="http://www.w3.org/2000/svg" width="51.392" height="51.26" viewBox="0 0 51.392 51.26">
  <g id="Group_3921" data-name="Group 3921" transform="translate(9418 4668.26)">
    <rect id="Rectangle_1455" data-name="Rectangle 1455" width="51" height="51" transform="translate(-9418 -4668)" fill="#fff"/>
    <path id="Path_14184" data-name="Path 14184" d="M797.139,629.461a49.891,49.891,0,0,0-49.891,49.891" transform="translate(-10045.961 -3871.121) rotate(-90)" fill="none" stroke="#cf9303" stroke-miterlimit="10" stroke-width="1"/>
  </g>
</svg>
