<svg xmlns="http://www.w3.org/2000/svg" width="220.943" height="110.107" viewBox="0 0 220.943 110.107">
  <path id="Path_14173" data-name="Path 14173" d="M747.248,629.461H917.641c27.643,0,50.05,23.807,50.05,53.175v56.432" transform="translate(-747.248 -628.961)" fill="none" stroke="#cf9303" stroke-miterlimit="10" stroke-width="1"/>
</svg>
