<svg xmlns="http://www.w3.org/2000/svg" width="219.902" height="220.943" viewBox="0 0 219.902 220.943">
  <path id="Path_14172" data-name="Path 14172" d="M967.691,629.461H797.3c-27.643,0-50.05,23.807-50.05,53.175V848.863" transform="translate(-628.961 967.691) rotate(-90)" fill="none" stroke="#cf9303" stroke-miterlimit="10" stroke-width="1"/>
</svg>
