<svg xmlns="http://www.w3.org/2000/svg" width="220.943" height="344.568" viewBox="0 0 220.943 344.568">
  <path id="Path_14171" data-name="Path 14171" d="M747.248,973.529H917.641c27.643,0,50.05-23.807,50.05-53.175V629.461" transform="translate(-747.248 -629.461)" fill="none" stroke="#cf9303" stroke-miterlimit="10" stroke-width="1"/>
</svg>
