<svg xmlns="http://www.w3.org/2000/svg" width="18.072" height="18.072" viewBox="0 0 18.072 18.072">
  <g id="Group_3272" data-name="Group 3272" transform="translate(-1131.928 -1411.651)">
    <path id="Path_12210" data-name="Path 12210" d="M-1409,2216.688h18.072" transform="translate(2540.928 -796)" fill="none" stroke="#0b6473" stroke-width="1"/>
    <path id="Path_12211" data-name="Path 12211" d="M-1409,2216.688h18.072" transform="translate(3357.652 2820.651) rotate(90)" fill="none" stroke="#0b6473" stroke-width="1"/>
  </g>
</svg>
