<svg xmlns="http://www.w3.org/2000/svg" width="30" height="29.998" viewBox="0 0 30 29.998">
  <path id="Subtraction_1" data-name="Subtraction 1" d="M22854,20172a15,15,0,1,1,10.607-4.393A14.9,14.9,0,0,1,22854,20172Zm.732-13.725v4.6h4.344a4.48,4.48,0,0,0,.049-8.959,6.172,6.172,0,0,0-2.043-2.227,6.089,6.089,0,0,0-9.3,3.973,3.637,3.637,0,0,0,.662,7.213h5.188v-4.6l-1.162,1.16a.542.542,0,0,1-.389.164.536.536,0,0,1-.389-.164.54.54,0,0,1,0-.775l2.1-2.1a.543.543,0,0,1,.389-.158.55.55,0,0,1,.389.158l2.1,2.1a.54.54,0,0,1,0,.775.529.529,0,0,1-.389.162.537.537,0,0,1-.387-.162l-1.162-1.16Z" transform="translate(-22839 -20142.002)" fill="#2f354d"/>
</svg>
