<svg xmlns="http://www.w3.org/2000/svg" width="181.801" height="375.009" viewBox="0 0 181.801 375.009">
  <g id="Group_3874" data-name="Group 3874" transform="translate(-45.5 -3312.366)">
    <path id="Path_13466" data-name="Path 13466" d="M1,67.325V188.388a39.6,39.6,0,0,0,39.6,39.6H107.4a39.6,39.6,0,0,1,39.6,39.6V442.334" transform="translate(45 3245.041)" fill="none" stroke="#cf9303" stroke-miterlimit="10" stroke-width="1"/>
    <path id="Path_13468" data-name="Path 13468" d="M1078.24,160.7s-16.93,17.239,0,34.17C1078.24,194.873,1094.812,177.275,1078.24,160.7Z" transform="translate(-4.922 4666.531) rotate(-90)" fill="none" stroke="#cf9303" stroke-miterlimit="10" stroke-width="1"/>
    <path id="Path_13469" data-name="Path 13469" d="M1121.849,197.335s-16.93,17.239,0,34.17C1121.849,231.505,1138.421,213.907,1121.849,197.335Z" transform="translate(-4.922 4666.531) rotate(-90)" fill="none" stroke="#cf9303" stroke-miterlimit="10" stroke-width="1"/>
    <path id="Path_13470" data-name="Path 13470" d="M1020.676,197.335s-16.93,17.239,0,34.17C1020.676,231.505,1037.248,213.907,1020.676,197.335Z" transform="translate(-4.922 4666.531) rotate(-90)" fill="none" stroke="#cf9303" stroke-miterlimit="10" stroke-width="1"/>
  </g>
</svg>
