<svg xmlns="http://www.w3.org/2000/svg" width="410.686" height="288.877" viewBox="0 0 410.686 288.877">
  <g id="Group_3949" data-name="Group 3949" transform="translate(0.686 -2417.123)">
    <g id="Group_3087" data-name="Group 3087" transform="translate(-270.621 -783.348)">
      <g id="Group_3062" data-name="Group 3062" transform="translate(270.62 3201.151)">
        <path id="Path_12380" data-name="Path 12380" d="M.942,225.459,174.891,328.671a19.176,19.176,0,0,0,19.447.073L366.244,228.489a3.605,3.605,0,0,0,.02-6.217L123.352,78.523a16.75,16.75,0,0,0-16.786-.159L1.308,137.982" transform="translate(-0.913 -76.188)" fill="none" stroke="#cf9303" stroke-miterlimit="10" stroke-width="1"/>
        <path id="Path_12381" data-name="Path 12381" d="M367.911,346v2.318a3.587,3.587,0,0,1-1.749,3.655L194.256,452.228a19.178,19.178,0,0,1-19.447-.073L.89,348.961" transform="translate(-0.89 -196.097)" fill="none" stroke="#cf9303" stroke-linecap="round" stroke-miterlimit="10" stroke-width="1"/>
        <path id="Path_12382" data-name="Path 12382" d="M1.121,224.552,177.709,328.01l171.118-97.226L120.484,98,1.078,165.372" transform="translate(-0.973 -85.881)" fill="none" stroke="#cf9303" stroke-miterlimit="10" stroke-width="1"/>
      </g>
      <ellipse id="Ellipse_43" data-name="Ellipse 43" cx="1.945" cy="1.111" rx="1.945" ry="1.111" transform="translate(295.961 3255.772)" fill="none" stroke="#cf9303" stroke-miterlimit="10" stroke-width="1"/>
    </g>
    <rect id="Rectangle_1505" data-name="Rectangle 1505" width="43" height="288" transform="translate(367 2418)" fill="none"/>
  </g>
</svg>
