<svg id="Group_3892" data-name="Group 3892" xmlns="http://www.w3.org/2000/svg" xmlns:xlink="http://www.w3.org/1999/xlink" width="1500" height="1020.023" viewBox="0 0 1500 1020.023">
  <defs>
    <linearGradient id="linear-gradient" x1="0.877" y1="0.197" x2="0.16" y2="0.89" gradientUnits="objectBoundingBox">
      <stop offset="0" stop-color="#ceb772"/>
      <stop offset="1" stop-color="#9f8844"/>
    </linearGradient>
    <clipPath id="clip-path">
      <path id="Path_14102" data-name="Path 14102" d="M23.651,32.651a9,9,0,1,0,9-9,9,9,0,0,0-9,9" fill="url(#linear-gradient)"/>
    </clipPath>
  </defs>
  <path id="Path_14138" data-name="Path 14138" d="M24.768,0l1.44-5.976a10.046,10.046,0,0,1-9.216,5.4H8.352V-17.64h5.976c2.16,0,4.032.72,4.752,2.952V-21.24c-.72,2.232-2.592,3.024-4.752,3.024H8.352V-34.7h8.712a9.343,9.343,0,0,1,8.784,5.4L24.48-35.28H2.52c1.944.576,2.448,2.232,2.448,4.032V-4.1c0,1.8-.5,3.528-2.448,4.1Zm4.176-25.2a11.225,11.225,0,0,1,3.672,3.456l7.632,10.08L34.992-4.608C33.624-2.664,31.32-.432,28.944,0h7.7c-1.08-.216-2.016-.864-2.016-2.016a3.033,3.033,0,0,1,.72-1.872L40.68-11.16l6.048,7.92a2.978,2.978,0,0,1,.36,1.368A1.922,1.922,0,0,1,45.72,0h8.064c-2.736-1.3-10.8-12.816-11.376-13.536l5.328-7.2c1.44-1.872,3.528-4.032,6.048-4.464h-7.7A2.229,2.229,0,0,1,48.1-23.184c0,1.656-2.448,4.176-3.312,5.328L42.048-14.04l-5.976-7.776a2.916,2.916,0,0,1-.5-1.512A1.945,1.945,0,0,1,36.936-25.2Zm28.008.648h2.016V-7.488C58.968-3.528,60.7,0,65.16,0c2.3,0,5.112-1.152,6.12-3.456A6.2,6.2,0,0,1,66.6-1.224c-2.952,0-4.752-2.52-4.752-5.256V-24.552h4.536V-25.2H61.848V-35.28a4.556,4.556,0,0,0-2.88,4.608V-25.2H56.952Zm26.64,18.72c0,3.888,3.384,6.12,7.056,6.12A8.979,8.979,0,0,0,97.7-2.952,9.232,9.232,0,0,1,92.3-.936,4.932,4.932,0,0,1,87.048-6.12c0-7.056,8.784-6.12,11.3-11.3V-4.608c0,2.52.576,4.9,3.6,4.9a4.182,4.182,0,0,0,3.6-2.376,3.368,3.368,0,0,1-2.016.648c-1.8,0-2.3-1.656-2.3-3.168V-17.424c0-4.752-2.016-7.848-7.056-7.848a5.742,5.742,0,0,0-2.664.576c3.816,0,6.768,1.44,6.768,5.688a4.576,4.576,0,0,1-.432,1.3C94.752-12.024,83.592-13.248,83.592-5.832ZM71.568,0H79.2c-1.8-.648-2.376-2.376-2.376-4.1V-25.2L72.36-21.96c1.512,0,1.656,1.944,1.656,3.024V-4.1C74.016-2.232,73.512-.576,71.568,0Zm12.1-23.256c3.6,0,2.664,3.168,5.04,3.168A1.856,1.856,0,0,0,90.36-22.1c0-1.944-2.16-2.52-3.672-2.52-2.016,0-6.264,1.368-7.7,2.88A9.024,9.024,0,0,1,83.664-23.256ZM105.552-12.6A12.706,12.706,0,0,0,118.3.072,12.629,12.629,0,0,0,130.9-12.6a12.691,12.691,0,0,0-12.672-12.672A12.691,12.691,0,0,0,105.552-12.6ZM117.36-24.552c6.624,0,10.368,7.056,10.368,12.96,0,5.184-2.952,11.016-8.784,11.016-6.624,0-10.44-7.128-10.44-12.96C108.5-18.72,111.528-24.552,117.36-24.552Zm22.752,3.1a7.278,7.278,0,0,1,3.528-1.3c1.368,0,2.232.864,3.1.864a1.666,1.666,0,0,0,1.872-1.728,1.815,1.815,0,0,0-2.016-1.656C143.784-25.272,141.912-23.256,140.112-21.456ZM141.264,0c-1.872-.576-2.376-2.232-2.376-4.1V-25.2l-4.536,3.168c1.44,0,1.656,2.088,1.656,3.1V-4.1c0,1.872-.5,3.528-2.448,4.1Zm18,.072A9.084,9.084,0,0,0,166.752-4.1c-2.016,1.944-3.672,2.952-6.552,2.952-5.832,0-8.424-7.056-8.424-11.952,0-4.968,2.808-11.664,8.568-11.664,3.672,0,7.776,3.168,7.776,6.984V-.072L172.8-3.6c-1.512-.144-1.872-1.44-1.872-2.736V-37.368l-4.68,3.6c1.656,0,1.872,2.16,1.872,3.384v8.136c-2.376-2.088-4.1-3.024-7.416-3.024-7.488,0-12.1,6.12-12.1,13.248C148.608-5.832,152.712.072,159.264.072Zm20.664-29.3a1.89,1.89,0,0,0,2.016-2.016,1.89,1.89,0,0,0-2.016-2.016,1.947,1.947,0,0,0-2.088,2.016A1.947,1.947,0,0,0,179.928-29.232ZM183.96,0c-1.872-.576-2.448-2.232-2.448-4.1V-25.2l-4.536,3.168c1.44,0,1.656,2.088,1.656,3.1V-4.1c0,1.872-.5,3.528-2.376,4.1Zm17.064-24.12c4.032,0,5.472,3.384,5.472,6.912V-4.392c0,1.944-.576,3.744-2.592,4.392h8.064c-2.016-.648-2.592-2.376-2.592-4.392V-16.56c0-4.608-2.088-8.784-7.2-8.784a10.877,10.877,0,0,0-8.064,4.032A11.773,11.773,0,0,1,201.024-24.12ZM195.12,0c-2.016-.72-2.592-2.376-2.592-4.392L192.456-25.2l-4.608,3.384c1.584,0,1.8,2.16,1.8,3.312V-4.392c0,2.016-.5,3.672-2.52,4.392Zm26.208.072a8.848,8.848,0,0,0,7.056-3.1,9.861,9.861,0,0,1-5.4,1.944c-3.1,0-5.184-1.944-5.184-5.04,0-5.544,5.832-7.056,10.152-7.992,6.552-1.44,12.24-2.952,17.424-7.488a5.109,5.109,0,0,1,2.808-1.152c1.512,0,1.944.936,3.024.936,1.224,0,1.872-.576,1.872-1.8,0-1.152-1.008-1.584-2.016-1.584-3.024,0-5.472,2.952-7.7,4.608v-4.536l-4.536,3.168c1.512,0,1.656,2.088,1.656,3.168a30.966,30.966,0,0,1-8.712,3.24c0-5.76-.648-9.648-7.416-9.648-2.88,0-9.072,2.232-9.072,5.616a1.838,1.838,0,0,0,1.8,2.016c1.656,0,1.872-1.008,1.872-2.376l-.216-1.08v-.5c0-2.232,3.312-3.1,5.112-3.1,3.96,0,5.112,3.888,5.112,7.056V-14.9c-4.464.72-14.688,2.952-14.688,8.784C214.272-2.016,217.512.072,221.328.072ZM245.736,0c-1.872-.864-2.376-2.16-2.376-4.1V-18.936a15.552,15.552,0,0,1-2.88,1.944V-4.1c0,1.872-.432,3.384-2.376,4.1ZM228.96-4.752c0,2.592.576,4.824,3.6,4.824,1.224,0,3.168-1.08,3.528-2.3a3.015,3.015,0,0,1-1.944.648c-1.8,0-2.376-1.584-2.376-3.168V-13.9c-.936.216-1.872.36-2.808.648Zm29.3-16.344,9,20.3L263.3,8.136c-.72,1.512-2.592,1.08-3.888,1.08-1.08,0-1.872.5-1.872,1.656a1.954,1.954,0,0,0,1.944,1.728c2.088,0,3.528-2.088,4.248-3.816,4.536-10.08,8.928-20.3,13.536-30.384a6.063,6.063,0,0,1,4.32-3.6h-7.776a3.009,3.009,0,0,1,2.448,3.24c0,1.728-6.264,14.976-7.344,17.5-1.152-2.448-7.992-16.848-7.992-18.432a2.377,2.377,0,0,1,1.44-2.3h-7.7C256.68-24.408,257.472-22.968,258.264-21.1Zm38.016,9.072A12.068,12.068,0,0,0,308.448.36c3.96,0,8.208-2.232,9.72-6.048-1.512,2.952-6.264,3.96-9.288,3.96-7.056,0-9.576-6.264-9.576-12.312h18.864c0-5.544-3.024-11.088-9.216-11.088C300.96-25.128,296.28-19.872,296.28-12.024ZM308.3-24.7c3.672,0,7.344,2.232,7.344,6.336,0,1.944-1.08,3.6-3.24,3.6H299.376C299.376-19.512,303.336-24.7,308.3-24.7Zm14.184,3.6L331.848.072,341.5-21.6a6.063,6.063,0,0,1,4.32-3.6H338.04a3.008,3.008,0,0,1,2.448,3.24,4.077,4.077,0,0,1-.216,1.3l-7.128,16.2-7.776-17.28a3.261,3.261,0,0,1-.216-1.152,2.377,2.377,0,0,1,1.44-2.3h-7.7C320.9-24.408,321.7-22.968,322.488-21.1Zm20.52,9.072A12.051,12.051,0,0,0,355.1.36,12.853,12.853,0,0,0,364.9-4.608c4.032-4.824,5.688-13.608,10.152-17.136a10.364,10.364,0,0,1,6.264-2.376c4.032,0,5.4,3.456,5.4,6.912V-4.464c0,1.944-.5,3.816-2.52,4.464h7.992c-2.016-.648-2.592-2.448-2.592-4.464v-12.1c0-4.536-2.016-8.784-7.128-8.784-3.6,0-7.488,2.376-9.648,5.256V-25.2l-4.608,3.312c1.584,0,1.8,2.232,1.8,3.384v3.24c-3.1,6.264-5.04,14.112-13.68,14.112-7.128,0-10.368-5.184-10.368-11.736a6.192,6.192,0,0,1,.072-1.152h18.72c0-5.544-3.024-11.088-9.072-11.088C347.76-25.128,343.008-19.8,343.008-12.024ZM354.96-24.7c3.672,0,7.344,2.3,7.344,6.336,0,1.872-1.08,3.6-3.168,3.6H346.1C346.1-19.512,349.992-24.7,354.96-24.7ZM367.416,0h7.992c-2.016-.72-2.592-2.448-2.592-4.464v-12.6a24.722,24.722,0,0,0-2.808,5.9v6.7C370.008-2.448,369.432-.72,367.416,0Zm26.928-24.552h2.016V-7.488c0,3.96,1.728,7.488,6.192,7.488,2.3,0,5.112-1.152,6.12-3.456a6.2,6.2,0,0,1-4.68,2.232c-2.952,0-4.752-2.52-4.752-5.256V-24.552h4.536V-25.2H399.24V-35.28a4.556,4.556,0,0,0-2.88,4.608V-25.2h-2.016Zm15.12,17.28V-1.3A34.974,34.974,0,0,0,418.9.288c4.464,0,8.928-1.872,8.928-7.056,0-8.208-16.2-6.408-16.2-13.824,0-3.024,3.672-4.464,6.264-4.464a9.356,9.356,0,0,1,8.712,6.048V-23.76a31.284,31.284,0,0,0-8.5-1.728c-4.248,0-8.28,2.376-8.28,7.056,0,8.5,16.128,7.056,16.128,13.464,0,3.816-4.608,4.464-7.488,4.464C414.216-.5,410.9-3.456,409.464-7.272ZM449.64.072a9.8,9.8,0,0,0,7.416-2.808,9.921,9.921,0,0,1-5.688,1.656,4.4,4.4,0,0,1-4.752-4.536c0-3.384,2.52-5.9,5.544-6.984a44.214,44.214,0,0,1,5.328-1.3c7.344-1.512,12.24-2.88,18.144-7.848a8.3,8.3,0,0,1,5.76-2.376c4.032,0,5.472,3.528,5.472,6.984V-4.464c0,2.016-.576,3.816-2.592,4.464h8.064c-2.016-.648-2.664-2.448-2.664-4.464v-12.1c0-4.392-2.016-8.712-7.056-8.712-4.752,0-6.264,2.664-9.72,5.04l-.072-4.9-4.536,3.384c1.512,0,1.8,2.16,1.8,3.312a39.34,39.34,0,0,1-9.36,3.384c0-5.9-.36-10.152-7.488-10.152-2.808,0-9,2.3-9,5.688a1.778,1.778,0,0,0,1.8,1.944c1.224,0,1.944-.5,1.944-1.8,0-.72-.288-1.368-.288-2.16,0-2.232,3.384-3.1,5.112-3.1,3.888,0,5.184,3.888,5.184,7.056v3.1a46.451,46.451,0,0,0-6.264,1.44c-3.96,1.08-8.64,2.736-8.64,7.7C443.088-1.656,446.328.072,449.64.072ZM467.568,0h7.92c-2.016-.72-2.52-2.448-2.52-4.464L472.9-18.5a11.087,11.087,0,0,1-2.808,1.656V-4.464C470.088-2.448,469.584-.72,467.568,0Zm-9.576-4.68c0,2.52.432,4.752,3.456,4.752a4.2,4.2,0,0,0,3.6-2.3,3.368,3.368,0,0,1-2.016.648c-1.8,0-2.3-1.656-2.3-3.1v-8.928c-.864.288-1.872.432-2.736.72ZM505.224.072A9.084,9.084,0,0,0,512.712-4.1C510.7-2.16,509.04-1.152,506.16-1.152c-5.832,0-8.424-7.056-8.424-11.952,0-4.968,2.808-11.664,8.568-11.664,3.672,0,7.776,3.168,7.776,6.984V-.072L518.76-3.6c-1.512-.144-1.872-1.44-1.872-2.736V-37.368l-4.68,3.6c1.656,0,1.872,2.16,1.872,3.384v8.136c-2.376-2.088-4.1-3.024-7.416-3.024-7.488,0-12.1,6.12-12.1,13.248C494.568-5.832,498.672.072,505.224.072Zm-503.5,47.9A12.068,12.068,0,0,0,13.9,60.36c3.96,0,8.208-2.232,9.72-6.048-1.512,2.952-6.264,3.96-9.288,3.96-7.056,0-9.576-6.264-9.576-12.312H23.616c0-5.544-3.024-11.088-9.216-11.088C6.408,34.872,1.728,40.128,1.728,47.976ZM13.752,35.3c3.672,0,7.344,2.232,7.344,6.336,0,1.944-1.08,3.6-3.24,3.6H4.824C4.824,40.488,8.784,35.3,13.752,35.3Zm11.3-.5a11.225,11.225,0,0,1,3.672,3.456l7.632,10.08L31.1,55.392c-1.368,1.944-3.672,4.176-6.048,4.608h7.7c-1.08-.216-2.016-.864-2.016-2.016a3.033,3.033,0,0,1,.72-1.872l5.328-7.272,6.048,7.92a2.978,2.978,0,0,1,.36,1.368A1.922,1.922,0,0,1,41.832,60H49.9C47.16,58.7,39.1,47.184,38.52,46.464l5.328-7.2c1.44-1.872,3.528-4.032,6.048-4.464h-7.7a2.229,2.229,0,0,1,2.016,2.016c0,1.656-2.448,4.176-3.312,5.328L38.16,45.96l-5.976-7.776a2.916,2.916,0,0,1-.5-1.512A1.945,1.945,0,0,1,33.048,34.8ZM59.112,72.312c-2.016-.648-2.376-2.232-2.376-4.176V57.192c2.376,2.016,4.1,3.024,7.416,3.024,8.064,0,11.952-6.552,11.952-13.968,0-6.336-3.888-11.52-10.512-11.52a9.193,9.193,0,0,0-7.488,4.1c2.016-1.944,3.744-2.952,6.552-2.952,6.192,0,8.28,6.264,8.28,11.448S70.7,59.712,64.512,59.712c-3.672,0-7.776-3.168-7.776-7.056V34.8l-4.68,3.528c1.512.072,1.872,1.44,1.872,2.664V68.136c0,1.872-.576,3.528-2.52,4.176Zm47.16-25.128c1.728-3.528,3.24-7.056,6.048-9.288a5.268,5.268,0,0,1,2.232-.648c1.44,0,2.3.864,3.168.864a1.666,1.666,0,0,0,1.872-1.728c0-1.08-1.08-1.656-2.088-1.656a7.2,7.2,0,0,0-4.68,2.088,14.693,14.693,0,0,0-3.024,2.952v-4.9l-4.536,3.1c1.512,0,1.728,2.088,1.728,3.1v3.528c-.432.792-.792,1.584-1.152,2.376-2.016,4.608-4.248,9.432-9.288,11.376a11.644,11.644,0,0,1-4.68.432c-7.56-.576-9.5-7.416-9.144-12.816h18.864c0-5.544-3.024-11.088-9.216-11.088-7.992,0-12.672,5.256-12.672,13.1A12.068,12.068,0,0,0,91.872,60.36c5.112,0,9-3.168,11.52-7.272a.223.223,0,0,0,.072-.144A53.253,53.253,0,0,0,106.272,47.184ZM91.728,35.3c3.672,0,7.344,2.232,7.344,6.336,0,1.944-1.08,3.6-3.24,3.6H82.8C82.8,40.488,86.76,35.3,91.728,35.3ZM112.176,60c-1.8-.576-2.376-2.232-2.376-4.1V42.144c-.144.5-2.376,5.184-2.808,5.976V55.9c0,1.872-.5,3.528-2.448,4.1Zm12.816-29.232a2.016,2.016,0,1,0,0-4.032,2.017,2.017,0,1,0,0,4.032ZM129.024,60c-1.872-.576-2.448-2.232-2.448-4.1V34.8l-4.536,3.168c1.44,0,1.656,2.088,1.656,3.1V55.9c0,1.872-.5,3.528-2.376,4.1Zm1.44-12.024a12.051,12.051,0,0,0,12.1,12.384,12.853,12.853,0,0,0,9.792-4.968c4.032-4.824,5.688-13.608,10.152-17.136a10.364,10.364,0,0,1,6.264-2.376c4.032,0,5.4,3.456,5.4,6.912V55.536c0,1.944-.5,3.816-2.52,4.464h7.992c-2.016-.648-2.592-2.448-2.592-4.464V43.44c0-4.536-2.016-8.784-7.128-8.784-3.6,0-7.488,2.376-9.648,5.256V34.8l-4.608,3.312c1.584,0,1.8,2.232,1.8,3.384v3.24c-3.1,6.264-5.04,14.112-13.68,14.112-7.128,0-10.368-5.184-10.368-11.736a6.193,6.193,0,0,1,.072-1.152h18.72c0-5.544-3.024-11.088-9.072-11.088C135.216,34.872,130.464,40.2,130.464,47.976ZM142.416,35.3c3.672,0,7.344,2.3,7.344,6.336,0,1.872-1.08,3.6-3.168,3.6H133.56C133.56,40.488,137.448,35.3,142.416,35.3ZM154.872,60h7.992c-2.016-.72-2.592-2.448-2.592-4.464v-12.6a24.722,24.722,0,0,0-2.808,5.9v6.7C157.464,57.552,156.888,59.28,154.872,60ZM181.8,35.448h2.016V52.512c0,3.96,1.728,7.488,6.192,7.488,2.3,0,5.112-1.152,6.12-3.456a6.2,6.2,0,0,1-4.68,2.232c-2.952,0-4.752-2.52-4.752-5.256V35.448h4.536V34.8H186.7V24.72a4.556,4.556,0,0,0-2.88,4.608V34.8H181.8Zm18.5-4.68a2.016,2.016,0,1,0,0-4.032,2.017,2.017,0,1,0,0,4.032ZM204.336,60c-1.872-.576-2.448-2.232-2.448-4.1V34.8l-4.536,3.168c1.44,0,1.656,2.088,1.656,3.1V55.9c0,1.872-.5,3.528-2.376,4.1Zm3.528-5.328c0,3.672,3.24,5.4,6.552,5.4a9.6,9.6,0,0,0,7.416-2.808,9.921,9.921,0,0,1-5.688,1.656,4.4,4.4,0,0,1-4.752-4.536c0-5.976,6.912-6.912,11.376-8.28V55.32c0,2.52.5,4.752,3.528,4.752a4.2,4.2,0,0,0,3.6-2.3,3.368,3.368,0,0,1-2.016.648c-1.8,0-2.3-1.584-2.3-3.1V42.576c0-5.184-2.232-7.848-7.488-7.848-2.88,0-9.072,2.3-9.072,5.688a1.838,1.838,0,0,0,1.8,2.016,1.7,1.7,0,0,0,1.944-1.872,2.953,2.953,0,0,0-.072-.792l-.144-.576a2.954,2.954,0,0,1-.072-.792c0-2.16,3.384-3.024,5.112-3.024,3.888,0,5.184,3.816,5.184,7.056V45.24C220.536,47.328,207.864,46.536,207.864,54.672ZM231.7,60h7.992c-2.016-.72-2.592-2.376-2.592-4.392l-.072-33.192L232.416,25.8c1.584,0,1.8,2.16,1.8,3.384V55.608C234.216,57.624,233.712,59.28,231.7,60Zm23.256-5.328c0,3.672,3.24,5.4,6.552,5.4a9.6,9.6,0,0,0,7.416-2.808,9.921,9.921,0,0,1-5.688,1.656,4.4,4.4,0,0,1-4.752-4.536c0-5.976,6.912-6.912,11.376-8.28V55.32c0,2.52.5,4.752,3.528,4.752a4.2,4.2,0,0,0,3.6-2.3,3.368,3.368,0,0,1-2.016.648c-1.8,0-2.3-1.584-2.3-3.1V42.576c0-5.184-2.232-7.848-7.488-7.848-2.88,0-9.072,2.3-9.072,5.688a1.838,1.838,0,0,0,1.8,2.016,1.7,1.7,0,0,0,1.944-1.872,2.954,2.954,0,0,0-.072-.792l-.144-.576a2.954,2.954,0,0,1-.072-.792c0-2.16,3.384-3.024,5.112-3.024,3.888,0,5.184,3.816,5.184,7.056V45.24C267.624,47.328,254.952,46.536,254.952,54.672Zm34.7,5.688a11.45,11.45,0,0,0,10.44-6.048,12.29,12.29,0,0,1-9,4.1c-7.056,0-9.936-6.048-9.936-12.312,0-5.04,3.528-10.8,9.072-10.8,2.808,0,5.832,2.088,5.832,5.112a1.921,1.921,0,0,0,1.8,2.16c1.08,0,1.656-.936,1.656-2.016,0-4.032-5.328-5.688-8.64-5.688-7.776,0-12.744,5.472-12.744,13.1C278.136,54.6,282.816,60.36,289.656,60.36Zm13.032-24.912H304.7V52.512c0,3.96,1.728,7.488,6.192,7.488,2.3,0,5.112-1.152,6.12-3.456a6.2,6.2,0,0,1-4.68,2.232c-2.952,0-4.752-2.52-4.752-5.256V35.448h4.536V34.8h-4.536V24.72a4.556,4.556,0,0,0-2.88,4.608V34.8h-2.016Zm18.5-4.68a2.016,2.016,0,0,0,0-4.032,2.017,2.017,0,1,0,0,4.032ZM325.224,60c-1.872-.576-2.448-2.232-2.448-4.1V34.8l-4.536,3.168c1.44,0,1.656,2.088,1.656,3.1V55.9c0,1.872-.5,3.528-2.376,4.1Zm6.048-21.1,9.36,21.168L350.28,38.4a6.063,6.063,0,0,1,4.32-3.6h-7.776a3.008,3.008,0,0,1,2.448,3.24,4.077,4.077,0,0,1-.216,1.3l-7.128,16.2-7.776-17.28a3.261,3.261,0,0,1-.216-1.152,2.377,2.377,0,0,1,1.44-2.3h-7.7C329.688,35.592,330.48,37.032,331.272,38.9Zm28.944-8.136a2.016,2.016,0,0,0,0-4.032,2.017,2.017,0,1,0,0,4.032ZM364.248,60c-1.872-.576-2.448-2.232-2.448-4.1V34.8l-4.536,3.168c1.44,0,1.656,2.088,1.656,3.1V55.9c0,1.872-.5,3.528-2.376,4.1Zm3.96-24.552h2.016V52.512c0,3.96,1.728,7.488,6.192,7.488,2.3,0,5.112-1.152,6.12-3.456a6.2,6.2,0,0,1-4.68,2.232c-2.952,0-4.752-2.52-4.752-5.256V35.448h4.536V34.8H373.1V24.72a4.556,4.556,0,0,0-2.88,4.608V34.8h-2.016ZM384.336,38.9l9,20.3-3.96,8.928c-.72,1.512-2.592,1.08-3.888,1.08-1.08,0-1.872.5-1.872,1.656A1.954,1.954,0,0,0,385.56,72.6c2.088,0,3.528-2.088,4.248-3.816,4.536-10.08,8.928-20.3,13.536-30.384a6.063,6.063,0,0,1,4.32-3.6h-7.776a3.008,3.008,0,0,1,2.448,3.24c0,1.728-6.264,14.976-7.344,17.5C393.84,53.088,387,38.688,387,37.1a2.377,2.377,0,0,1,1.44-2.3h-7.7C382.752,35.592,383.544,37.032,384.336,38.9Z" transform="translate(810 363.305)" fill="#fff"/>
  <path id="Path_380" data-name="Path 380" d="M2.075,398.963H239.351v206.78H2.075ZM.587,607.23H240.838V397.475H.587Z" transform="translate(268.85 44.248)" fill="#cf9303"/>
  <path id="Path_381" data-name="Path 381" d="M363.488,645.488H563.573v23.8H363.488ZM362,670.777H565.062V644H362Z" transform="translate(671.26 -18.908)" fill="#cf9303"/>
  <path id="Path_382" data-name="Path 382" d="M81.488,324.45H80V108H340.335v86.282h-1.488V109.488H81.488Z" transform="translate(248.504 118.408)" fill="#cf9303"/>
  <rect id="Rectangle_366" data-name="Rectangle 366" width="186.301" height="1.791" transform="translate(587.859 311.514)" fill="#cf9303"/>
  <path id="Path_383" data-name="Path 383" d="M535.109,143.62H428V128H535.109Zm-105.622-1.488H533.622V129.488H429.488Z" transform="translate(159.352 113.285)" fill="#cf9303"/>
  <path id="Path_384" data-name="Path 384" d="M556.68,162.62H428V147H556.68Zm-127.192-1.488h125.7V148.488h-125.7Z" transform="translate(159.352 108.418)" fill="#cf9303"/>
  <path id="Path_385" data-name="Path 385" d="M581.969,181.62H428V166H581.969Zm-152.482-1.488H580.482V167.488H429.488Z" transform="translate(159.352 103.549)" fill="#cf9303"/>
  <path id="Path_386" data-name="Path 386" d="M608.747,200.62H428V185H608.747Zm-179.259-1.488H607.259V186.488H429.488Z" transform="translate(159.352 98.682)" fill="#cf9303"/>
  <path id="Path_387" data-name="Path 387" d="M216.641,249.791a1.422,1.422,0,0,0,.964-.785,3.08,3.08,0,0,0,.25-1.249V234.3a2.958,2.958,0,0,0-.25-1.231,1.435,1.435,0,0,0-.964-.768H227.53l.678,2.963a4.647,4.647,0,0,0-4.356-2.678h-4.32v8.176H222.5a2.979,2.979,0,0,0,1.446-.339,1.993,1.993,0,0,0,.91-1.16v3.249a1.923,1.923,0,0,0-.91-1.143,3.123,3.123,0,0,0-1.446-.321h-2.963v8.462h4.284a5.261,5.261,0,0,0,2.678-.678,4.961,4.961,0,0,0,1.892-2l-.714,2.963Z" transform="translate(213.5 86.564)" fill="#fff"/>
  <path id="Path_388" data-name="Path 388" d="M234.6,241.053a5.735,5.735,0,0,0-.661-1.232,2.4,2.4,0,0,0-1.125-.8h3.82a1.054,1.054,0,0,0-.536.446,1.345,1.345,0,0,0-.178.7,1.6,1.6,0,0,0,.107.57l3.856,8.569,3.535-8.033a2.022,2.022,0,0,0,.107-.643,1.943,1.943,0,0,0-.3-1.053,1.18,1.18,0,0,0-.91-.553h3.856a2.818,2.818,0,0,0-1.285.625,3.051,3.051,0,0,0-.857,1.16l-4.784,10.746Z" transform="translate(209.355 84.844)" fill="#fff"/>
  <path id="Path_389" data-name="Path 389" d="M248.9,245.526a7.846,7.846,0,0,1,.428-2.66,5.844,5.844,0,0,1,1.232-2.053,5.368,5.368,0,0,1,1.982-1.321,7.172,7.172,0,0,1,2.642-.464,4.039,4.039,0,0,1,1.981.464,4.133,4.133,0,0,1,1.392,1.25,5.938,5.938,0,0,1,.839,1.768,7.185,7.185,0,0,1,.286,2.017H250.4a1.169,1.169,0,0,0-.036.285v.286a8.343,8.343,0,0,0,.3,2.285,5.075,5.075,0,0,0,.946,1.857,4.466,4.466,0,0,0,1.607,1.231,5.4,5.4,0,0,0,2.285.446,4.924,4.924,0,0,0,2.66-.66,6.113,6.113,0,0,0,1.767-1.679,12.727,12.727,0,0,0,1.25-2.249q.536-1.232,1.107-2.41v-1.607a4.109,4.109,0,0,0-.036-.5,2.872,2.872,0,0,0-.125-.553,1.13,1.13,0,0,0-.268-.446.628.628,0,0,0-.464-.179l2.285-1.642v2.535a7.316,7.316,0,0,1,2.124-1.839,5.181,5.181,0,0,1,2.66-.768,3.389,3.389,0,0,1,1.625.357,3.152,3.152,0,0,1,1.089.964,4.136,4.136,0,0,1,.625,1.392,6.747,6.747,0,0,1,.2,1.642v6a3.33,3.33,0,0,0,.268,1.357,1.585,1.585,0,0,0,1.018.856h-3.963a1.515,1.515,0,0,0,1-.875,3.58,3.58,0,0,0,.25-1.339v-6.319a5.675,5.675,0,0,0-.143-1.267,3.554,3.554,0,0,0-.446-1.107,2.222,2.222,0,0,0-.821-.768,2.6,2.6,0,0,0-1.267-.286,4.4,4.4,0,0,0-1.66.339,5.535,5.535,0,0,0-1.446.839,5.719,5.719,0,0,0-1.428,1.715q-.607,1.071-1.16,2.284t-1.125,2.41a9.785,9.785,0,0,1-1.321,2.089,7.548,7.548,0,0,1-2.16,1.784,5.488,5.488,0,0,1-2.7.678,5.937,5.937,0,0,1-2.392-.481,5.855,5.855,0,0,1-1.91-1.322,6.062,6.062,0,0,1-1.25-1.946,6.333,6.333,0,0,1-.446-2.392m5.927-6.284a3.509,3.509,0,0,0-1.732.446,4.983,4.983,0,0,0-1.392,1.142,5.488,5.488,0,0,0-.928,1.571,4.853,4.853,0,0,0-.339,1.767h6.462a1.366,1.366,0,0,0,1.178-.536,2.056,2.056,0,0,0,.393-1.249,2.751,2.751,0,0,0-.321-1.34,3.153,3.153,0,0,0-.821-.981,3.714,3.714,0,0,0-1.16-.608,4.315,4.315,0,0,0-1.339-.214M261,251.488a1.714,1.714,0,0,0,1.018-.875,3.2,3.2,0,0,0,.268-1.339v-3.32a2.309,2.309,0,0,1,.178-.554c.119-.3.262-.619.428-.963s.321-.655.464-.929a1.575,1.575,0,0,1,.321-.482v6.248a3.2,3.2,0,0,0,.268,1.339,1.714,1.714,0,0,0,1.018.875Z" transform="translate(205.236 84.867)" fill="#fff"/>
  <path id="Path_390" data-name="Path 390" d="M283.12,237.3h1v-2.713a2.834,2.834,0,0,1,.339-1.375,1.987,1.987,0,0,1,1.089-.91v5H287.8v.321h-2.249v8.961a2.835,2.835,0,0,0,.625,1.821,2.086,2.086,0,0,0,1.732.785,3.024,3.024,0,0,0,1.267-.3,2.788,2.788,0,0,0,1.053-.8,2.6,2.6,0,0,1-1.285,1.285,4.026,4.026,0,0,1-1.749.428,3.052,3.052,0,0,1-1.41-.3,2.694,2.694,0,0,1-.964-.822,3.321,3.321,0,0,1-.536-1.178,5.952,5.952,0,0,1-.161-1.41v-8.462h-1Z" transform="translate(196.469 86.564)" fill="#fff"/>
  <path id="Path_391" data-name="Path 391" d="M293.2,247.859a5.622,5.622,0,0,0,1.7,2.392,4.192,4.192,0,0,0,2.767.964,10.741,10.741,0,0,0,1.178-.071,4.11,4.11,0,0,0,1.214-.322,2.622,2.622,0,0,0,.946-.678,1.817,1.817,0,0,0-.214-2.446,5.714,5.714,0,0,0-1.482-.91q-.893-.393-1.928-.732a11.712,11.712,0,0,1-1.928-.821,5.067,5.067,0,0,1-1.482-1.178,2.589,2.589,0,0,1-.589-1.732,3.219,3.219,0,0,1,1.25-2.624,3.83,3.83,0,0,1,1.321-.66,5.561,5.561,0,0,1,1.535-.214,8.251,8.251,0,0,1,.946.071q.589.073,1.2.2t1.178.286a6.887,6.887,0,0,1,.893.3v2.356a3.745,3.745,0,0,0-.66-1.232,4.621,4.621,0,0,0-1.035-.946,4.974,4.974,0,0,0-1.268-.607,4.483,4.483,0,0,0-1.357-.214,4.1,4.1,0,0,0-1.018.143,4,4,0,0,0-1.018.411,2.5,2.5,0,0,0-.768.678,1.606,1.606,0,0,0-.3.982,1.994,1.994,0,0,0,.589,1.5,5.548,5.548,0,0,0,1.482,1,17.079,17.079,0,0,0,1.946.786,15.421,15.421,0,0,1,1.946.8,5.053,5.053,0,0,1,1.482,1.089,2.386,2.386,0,0,1,.589,1.678,3.08,3.08,0,0,1-1.375,2.713,4.037,4.037,0,0,1-1.428.608,7.466,7.466,0,0,1-1.624.179,13.215,13.215,0,0,1-2.374-.232,19.71,19.71,0,0,1-2.3-.554Z" transform="translate(193.887 84.893)" fill="#fff"/>
  <path id="Path_392" data-name="Path 392" d="M233.748,305.247a78.472,78.472,0,1,1,78.472-78.472,78.561,78.561,0,0,1-78.472,78.472m0-155.457a76.985,76.985,0,1,0,76.985,76.985,77.072,77.072,0,0,0-76.985-76.985" transform="translate(229.221 108.084)" fill="#cf9303"/>
  <path id="Path_393" data-name="Path 393" d="M453.226,411.361H399.08l-.006-98.093c-.005-.143-.01-.288-.01-.432a27.125,27.125,0,1,1,54.251,0c0,.6-.034,60.508-.091,61.237l-1.483-.116.742.058-.742-.045c.052-1.127.087-60.54.087-61.133a25.638,25.638,0,1,0-51.276,0c0,.128,0,.255.009.382l.007.217v96.439h51.171V392.7h1.488Z" transform="translate(166.766 72.881)" fill="#cf9303"/>
  <path id="Path_394" data-name="Path 394" d="M417.567,413.948H416.08l-.006-87.68c-.005-.144-.01-.288-.01-.432a27.143,27.143,0,0,1,36.323-25.526l-.5,1.4a25.657,25.657,0,0,0-34.331,24.127c0,.128,0,.255.009.382l.007.217Z" transform="translate(162.41 69.551)" fill="#cf9303"/>
  <rect id="Rectangle_368" data-name="Rectangle 368" width="58.065" height="1.488" transform="translate(508.508 464.691)" fill="#cf9303"/>
  <path id="Path_395" data-name="Path 395" d="M486.285,487.621H322v-1.488H486.285a36.4,36.4,0,0,0,36.363-36.364V376.806h1.488V449.77a37.894,37.894,0,0,1-37.85,37.851" transform="translate(186.508 49.543)" fill="#cf9303"/>
  <path id="Path_396" data-name="Path 396" d="M593.231,325.894h-1.488l-.016-7.168c-.011-.324-.022-.648-.022-.974A64.825,64.825,0,0,1,656.456,253v1.488a63.335,63.335,0,0,0-63.264,63.264c0,.31.01.617.022.925l.016.554Z" transform="translate(117.414 81.262)" fill="#cf9303"/>
  <path id="Path_397" data-name="Path 397" d="M87.734,537.465a1.423,1.423,0,0,0,.964-.786,3.075,3.075,0,0,0,.25-1.249V521.97a2.961,2.961,0,0,0-.25-1.232,1.437,1.437,0,0,0-.964-.768H98.623l.678,2.964a4.646,4.646,0,0,0-4.356-2.678h-4.32v8.175h2.963a2.98,2.98,0,0,0,1.446-.339,1.994,1.994,0,0,0,.91-1.16v3.249a1.921,1.921,0,0,0-.91-1.142,3.123,3.123,0,0,0-1.446-.322H90.626v8.462H94.91a5.269,5.269,0,0,0,2.678-.678,4.959,4.959,0,0,0,1.892-2l-.714,2.963Z" transform="translate(246.523 12.867)" fill="#fff"/>
  <path id="Path_398" data-name="Path 398" d="M109.313,526.691a.843.843,0,0,0-.482.338.976.976,0,0,0-.2.59,1.405,1.405,0,0,0,.25.75l2.963,3.855,1.357-1.891.446-.536q.268-.321.536-.7a7.385,7.385,0,0,0,.464-.731,1.413,1.413,0,0,0,.2-.678.835.835,0,0,0-.3-.678,1.5,1.5,0,0,0-.7-.321h3.82a3.616,3.616,0,0,0-1.7.839,8.725,8.725,0,0,0-1.3,1.375l-2.642,3.57q.107.144.8,1.108t1.607,2.142q.91,1.177,1.821,2.2a5.81,5.81,0,0,0,1.41,1.268h-4a.891.891,0,0,0,.678-.928,1.536,1.536,0,0,0-.054-.358,1.053,1.053,0,0,0-.125-.321l-3-3.928-2.642,3.606a1.523,1.523,0,0,0-.357.928.829.829,0,0,0,.3.678,1.492,1.492,0,0,0,.7.322h-3.82a3.69,3.69,0,0,0,1.7-.875,7.857,7.857,0,0,0,1.3-1.41l2.606-3.5-3.785-5q-.428-.537-.821-.964a3.636,3.636,0,0,0-1-.75Z" transform="translate(242.012 11.145)" fill="#fff"/>
  <path id="Path_399" data-name="Path 399" d="M122.917,545.28a1.617,1.617,0,0,0,.982-.8,2.879,2.879,0,0,0,.268-1.268v-13.46a2.179,2.179,0,0,0-.178-.875.791.791,0,0,0-.75-.446l2.321-1.75v8.854a2.867,2.867,0,0,0,.339,1.357,3.858,3.858,0,0,0,.893,1.124,4.148,4.148,0,0,0,1.25.751,3.824,3.824,0,0,0,1.375.268,3.131,3.131,0,0,0,1.946-.608,4.727,4.727,0,0,0,1.3-1.517,6.9,6.9,0,0,0,.714-1.982,10.388,10.388,0,0,0,.214-2.035,9.351,9.351,0,0,0-.214-1.964,6.347,6.347,0,0,0-.7-1.839,3.973,3.973,0,0,0-1.267-1.356,3.43,3.43,0,0,0-1.928-.518,3.834,3.834,0,0,0-1.767.375,6.447,6.447,0,0,0-1.482,1.089,4.481,4.481,0,0,1,1.607-1.482,4.287,4.287,0,0,1,2.106-.554,5.226,5.226,0,0,1,2.214.447,4.652,4.652,0,0,1,1.624,1.231,5.688,5.688,0,0,1,1.018,1.821,6.768,6.768,0,0,1,.357,2.214,9.6,9.6,0,0,1-.357,2.642,6.262,6.262,0,0,1-1.107,2.2,5.446,5.446,0,0,1-4.463,2.089,4.621,4.621,0,0,1-2.017-.375,8.326,8.326,0,0,1-1.66-1.125v5.427a3.5,3.5,0,0,0,.214,1.268,1.432,1.432,0,0,0,.964.8Z" transform="translate(237.51 11.158)" fill="#fff"/>
  <path id="Path_400" data-name="Path 400" d="M154.954,532.819q-.321.715-.661,1.445t-.732,1.411a.1.1,0,0,1-.036.071,8.7,8.7,0,0,1-2.356,2.571,5.564,5.564,0,0,1-3.356,1.035,5.978,5.978,0,0,1-4.3-1.784,6.044,6.044,0,0,1-1.267-1.946,6.256,6.256,0,0,1-.464-2.411,6.69,6.69,0,0,1,1.642-4.713,5.993,5.993,0,0,1,4.641-1.784,4.135,4.135,0,0,1,2,.464,4.25,4.25,0,0,1,1.428,1.25,5.671,5.671,0,0,1,.857,1.767,7.188,7.188,0,0,1,.286,2.017H143.28a8.912,8.912,0,0,0,.107,2.089,5.959,5.959,0,0,0,.7,2,4.442,4.442,0,0,0,3.731,2.267,5.236,5.236,0,0,0,1.143.018,6.2,6.2,0,0,0,1.178-.232,5.377,5.377,0,0,0,1.624-.964,7.816,7.816,0,0,0,1.232-1.357,11.907,11.907,0,0,0,.964-1.606q.428-.857.785-1.714.143-.285.268-.589a3.947,3.947,0,0,1,.3-.589v-1.75a3.506,3.506,0,0,0-.036-.447,2.533,2.533,0,0,0-.125-.517,1.1,1.1,0,0,0-.25-.411.605.605,0,0,0-.446-.16l2.249-1.535v2.428a6.316,6.316,0,0,1,.7-.785,8.942,8.942,0,0,1,.8-.678,6.159,6.159,0,0,1,1.053-.732,2.592,2.592,0,0,1,1.267-.3,1.265,1.265,0,0,1,.714.214.69.69,0,0,1,.321.608.773.773,0,0,1-.268.643,1.023,1.023,0,0,1-.661.214,1.322,1.322,0,0,1-.678-.214,1.71,1.71,0,0,0-.893-.214,1.738,1.738,0,0,0-.553.089,4.255,4.255,0,0,0-.553.232,6.5,6.5,0,0,0-1.7,2.052q-.661,1.233-1.3,2.553m-7.212-5.891a3.509,3.509,0,0,0-1.732.446,5.272,5.272,0,0,0-2.356,2.713,4.854,4.854,0,0,0-.339,1.767h6.462a1.4,1.4,0,0,0,1.214-.536,2.052,2.052,0,0,0,.393-1.249,2.748,2.748,0,0,0-.321-1.339,3.361,3.361,0,0,0-.821-1,3.277,3.277,0,0,0-1.16-.607,4.676,4.676,0,0,0-1.339-.2m6.355,12.246a1.434,1.434,0,0,0,.964-.768,3.05,3.05,0,0,0,.25-1.267v-3.856q.071-.143.286-.589t.464-.946q.25-.5.428-.91c.119-.273.19-.447.214-.518v6.819a3.05,3.05,0,0,0,.25,1.267,1.42,1.42,0,0,0,.928.768Z" transform="translate(232.678 11.158)" fill="#fff"/>
  <path id="Path_401" data-name="Path 401" d="M169.524,537.81a1.378,1.378,0,0,0,.946-.768,3.251,3.251,0,0,0,.232-1.268V528.42a3.628,3.628,0,0,0-.036-.446,3.731,3.731,0,0,0-.107-.518.939.939,0,0,0-.232-.411.6.6,0,0,0-.446-.161l2.249-1.571v10.461a3.036,3.036,0,0,0,.25,1.268,1.43,1.43,0,0,0,.964.768Zm1.821-14.5a1.051,1.051,0,0,1-.75-.268,1.081,1.081,0,0,1,0-1.464,1.051,1.051,0,0,1,.75-.268,1,1,0,0,1,0,2" transform="translate(225.57 12.521)" fill="#fff"/>
  <path id="Path_402" data-name="Path 402" d="M175.62,533.2a7.849,7.849,0,0,1,.428-2.66,5.852,5.852,0,0,1,1.232-2.053,5.375,5.375,0,0,1,1.982-1.32,7.157,7.157,0,0,1,2.642-.464,4.031,4.031,0,0,1,1.982.464,4.132,4.132,0,0,1,1.392,1.25,5.925,5.925,0,0,1,.839,1.767,7.189,7.189,0,0,1,.286,2.017H177.12a1.176,1.176,0,0,0-.036.285v.286a8.339,8.339,0,0,0,.3,2.285,5.07,5.07,0,0,0,.946,1.857,4.466,4.466,0,0,0,1.607,1.232,5.4,5.4,0,0,0,2.285.446,4.917,4.917,0,0,0,2.66-.66,6.111,6.111,0,0,0,1.767-1.678A12.74,12.74,0,0,0,187.9,534q.536-1.231,1.107-2.41v-1.606a4.117,4.117,0,0,0-.036-.5,2.864,2.864,0,0,0-.125-.553,1.133,1.133,0,0,0-.268-.447.631.631,0,0,0-.464-.178l2.285-1.642V529.2a7.3,7.3,0,0,1,2.124-1.838,5.181,5.181,0,0,1,2.66-.768,3.387,3.387,0,0,1,1.624.357,3.144,3.144,0,0,1,1.089.964,4.13,4.13,0,0,1,.625,1.392,6.744,6.744,0,0,1,.2,1.642v6a3.327,3.327,0,0,0,.268,1.358,1.583,1.583,0,0,0,1.018.857h-3.963a1.516,1.516,0,0,0,1-.875,3.578,3.578,0,0,0,.25-1.339v-6.319a5.679,5.679,0,0,0-.143-1.267,3.549,3.549,0,0,0-.446-1.106,2.216,2.216,0,0,0-.821-.768,2.591,2.591,0,0,0-1.267-.286,4.405,4.405,0,0,0-1.66.339,5.519,5.519,0,0,0-1.446.839,5.716,5.716,0,0,0-1.428,1.714q-.607,1.071-1.16,2.285t-1.125,2.41a9.785,9.785,0,0,1-1.321,2.089,7.564,7.564,0,0,1-2.16,1.785,5.487,5.487,0,0,1-2.7.678,5.937,5.937,0,0,1-2.392-.481,5.831,5.831,0,0,1-1.91-1.322,6.052,6.052,0,0,1-1.25-1.945,6.338,6.338,0,0,1-.446-2.393m5.927-6.283a3.508,3.508,0,0,0-1.732.446,4.968,4.968,0,0,0-1.392,1.142,5.477,5.477,0,0,0-.928,1.571,4.854,4.854,0,0,0-.339,1.767h6.462a1.365,1.365,0,0,0,1.178-.536,2.052,2.052,0,0,0,.393-1.249,2.748,2.748,0,0,0-.321-1.339,3.147,3.147,0,0,0-.821-.982,3.729,3.729,0,0,0-1.16-.608,4.336,4.336,0,0,0-1.339-.214m6.177,12.246a1.715,1.715,0,0,0,1.018-.875,3.2,3.2,0,0,0,.268-1.339v-3.32a2.321,2.321,0,0,1,.179-.554q.179-.445.428-.963t.464-.929a1.566,1.566,0,0,1,.321-.481v6.247a3.2,3.2,0,0,0,.268,1.339,1.715,1.715,0,0,0,1.018.875Z" transform="translate(224.008 11.17)" fill="#fff"/>
  <path id="Path_403" data-name="Path 403" d="M209.843,524.969h1v-2.713a2.832,2.832,0,0,1,.339-1.375,1.991,1.991,0,0,1,1.089-.911v5h2.249v.321h-2.249v8.961a2.836,2.836,0,0,0,.625,1.822,2.088,2.088,0,0,0,1.732.785,3.026,3.026,0,0,0,1.267-.3,2.787,2.787,0,0,0,1.053-.8,2.6,2.6,0,0,1-1.285,1.285,4.037,4.037,0,0,1-1.749.428,3.044,3.044,0,0,1-1.41-.3,2.686,2.686,0,0,1-.964-.822,3.315,3.315,0,0,1-.536-1.178,5.95,5.95,0,0,1-.161-1.409V525.29h-1Z" transform="translate(215.24 12.867)" fill="#fff"/>
  <path id="Path_404" data-name="Path 404" d="M219.731,537.81a1.378,1.378,0,0,0,.946-.768,3.251,3.251,0,0,0,.232-1.268V528.42a3.625,3.625,0,0,0-.036-.446,3.731,3.731,0,0,0-.107-.518.939.939,0,0,0-.232-.411.6.6,0,0,0-.446-.161l2.249-1.571v10.461a3.035,3.035,0,0,0,.25,1.268,1.43,1.43,0,0,0,.964.768Zm1.821-14.5a1.051,1.051,0,0,1-.75-.268,1.081,1.081,0,0,1,0-1.464,1.051,1.051,0,0,1,.75-.268,1,1,0,0,1,0,2" transform="translate(212.707 12.521)" fill="#fff"/>
  <path id="Path_405" data-name="Path 405" d="M227.218,536.533a2.73,2.73,0,0,1,1-2.284,6.935,6.935,0,0,1,2.285-1.178,21.6,21.6,0,0,1,2.481-.608,3.377,3.377,0,0,0,1.624-.606v-1.392a6.266,6.266,0,0,0-.125-1.232,3.486,3.486,0,0,0-.428-1.125,2.523,2.523,0,0,0-.8-.822,2.2,2.2,0,0,0-1.214-.321,3.744,3.744,0,0,0-.75.089,4.329,4.329,0,0,0-.839.267,2.017,2.017,0,0,0-.678.464.96.96,0,0,0-.268.678,1.7,1.7,0,0,0,.036.394l.071.285a1.7,1.7,0,0,1,.036.393q0,.928-.964.928a.783.783,0,0,1-.661-.3,1.116,1.116,0,0,1-.232-.7,1.63,1.63,0,0,1,.5-1.16,4.72,4.72,0,0,1,1.214-.894,6.823,6.823,0,0,1,1.482-.57,5.411,5.411,0,0,1,1.3-.2,3.631,3.631,0,0,1,2.838.982,4.252,4.252,0,0,1,.875,2.91v6.32a2.4,2.4,0,0,0,.232,1.053.911.911,0,0,0,.91.481,1.617,1.617,0,0,0,1-.321,1.565,1.565,0,0,1-.732.822,2.113,2.113,0,0,1-1.053.321,1.813,1.813,0,0,1-.91-.2,1.347,1.347,0,0,1-.518-.518,2.319,2.319,0,0,1-.25-.75,5.345,5.345,0,0,1-.071-.893v-4.571q-.821.251-1.8.5a9.17,9.17,0,0,0-1.839.678,4.32,4.32,0,0,0-1.428,1.125,2.75,2.75,0,0,0-.571,1.8,2.119,2.119,0,0,0,.66,1.642,2.4,2.4,0,0,0,1.7.606,5.662,5.662,0,0,0,1.482-.2,4.186,4.186,0,0,0,1.339-.624,4.06,4.06,0,0,1-1.66,1.088,6.333,6.333,0,0,1-2.017.3,4.552,4.552,0,0,1-1.2-.161,3,3,0,0,1-1.035-.5,2.751,2.751,0,0,1-.732-.839,2.329,2.329,0,0,1-.286-1.179" transform="translate(210.789 11.158)" fill="#fff"/>
  <path id="Path_406" data-name="Path 406" d="M243.105,537.072a1.659,1.659,0,0,0,1-.857,3.271,3.271,0,0,0,.25-1.322v-13.1a4.535,4.535,0,0,0-.036-.518,2.517,2.517,0,0,0-.125-.553,1.153,1.153,0,0,0-.268-.429.63.63,0,0,0-.464-.178l2.285-1.679.036,16.459a3.082,3.082,0,0,0,.268,1.322,1.732,1.732,0,0,0,1.018.857Z" transform="translate(206.721 13.26)" fill="#fff"/>
  <path id="Path_407" data-name="Path 407" d="M226.323,594.569H30.356V423.443H226.323Zm-194.48-1.488H224.834V424.931H31.843Z" transform="translate(261.223 37.596)" fill="#cf9303"/>
  <path id="Path_408" data-name="Path 408" d="M221.417,590.289h-181V432.216h181ZM41.9,588.8H219.929V433.7H41.9Z" transform="translate(258.646 35.348)" fill="#cf9303"/>
  <rect id="Rectangle_369" data-name="Rectangle 369" width="1.488" height="29.383" transform="translate(269.691 443.027) rotate(-48.902)" fill="#cf9303"/>
  <rect id="Rectangle_370" data-name="Rectangle 370" width="29.382" height="1.488" transform="translate(486.309 461.215) rotate(-41.068)" fill="#cf9303"/>
  <rect id="Rectangle_371" data-name="Rectangle 371" width="29.383" height="1.488" transform="matrix(0.754, -0.657, 0.657, 0.754, 269.686, 650.168)" fill="#cf9303"/>
  <rect id="Rectangle_372" data-name="Rectangle 372" width="1.488" height="29.383" transform="matrix(0.657, -0.754, 0.754, 0.657, 486.313, 631.982)" fill="#cf9303"/>
  <rect id="Rectangle_373" data-name="Rectangle 373" width="505.801" height="505.793" transform="translate(269 146.076)" fill="none"/>
  <rect id="Rectangle_367" data-name="Rectangle 367" width="437.928" height="1.488" transform="translate(269.182 582.441) rotate(-90)" fill="#cf9303"/>
  <path id="Path_409" data-name="Path 409" d="M554.316,623.968H442V560H554.316ZM443.488,622.48H552.828V561.488H443.488Z" transform="translate(641.609 2.318)" fill="#cf9303"/>
  <path id="Path_410" data-name="Path 410" d="M399.064,619v-56.66l33.424,17.7V604.98Zm1.488-54.189v51.952L431,603.99V580.933Z" transform="translate(652.609 1.719)" fill="#cf9303"/>
  <path id="Path_411" data-name="Path 411" d="M397.926,618.786H389V563h8.926Zm-7.438-1.488h5.95V564.488h-5.95Z" transform="translate(655.188 1.551)" fill="#cf9303"/>
  <rect id="Rectangle_378" data-name="Rectangle 378" width="505.801" height="505.793" transform="translate(754.844 145.783)" fill="none"/>
  <path id="Path_412" data-name="Path 412" d="M489.436,434.536,416.06,408.359l.379-11.023L517.063,411Zm-71.852-27.213,71.541,25.523,24.439-20.821-95.7-12.994Z" transform="translate(162.41 44.283)" fill="#cf9303"/>
  <path id="Path_413" data-name="Path 413" d="M537.886,397.757l-34.694-4.711L579.4,340.58l15.047,4.43ZM507.2,392.09l30.182,4.1,54.14-50.488-11.866-3.493Z" transform="translate(140.09 58.824)" fill="#cf9303"/>
  <path id="Path_414" data-name="Path 414" d="M658.545,379.162l-61.521-14.838,19.885-18.543,41.842,22.54Zm-58.484-15.636,57.032,13.755.154-8.082-40.1-21.6Z" transform="translate(116.051 57.492)" fill="#cf9303"/>
  <line id="Line_109" data-name="Line 109" x1="39.948" y2="39.948" transform="translate(269.961 231.615)" fill="#f6eee2"/>
  <rect id="Rectangle_381" data-name="Rectangle 381" width="56.495" height="1.488" transform="translate(269.436 271.037) rotate(-45.001)" fill="#cf9303"/>
  <line id="Line_110" data-name="Line 110" x1="39.948" y2="39.948" transform="translate(269.961 247.582)" fill="#f6eee2"/>
  <rect id="Rectangle_382" data-name="Rectangle 382" width="56.495" height="1.488" transform="translate(269.436 287.004) rotate(-45.001)" fill="#cf9303"/>
  <line id="Line_111" data-name="Line 111" x1="39.948" y2="39.948" transform="translate(269.961 263.547)" fill="#f6eee2"/>
  <rect id="Rectangle_383" data-name="Rectangle 383" width="56.495" height="1.488" transform="translate(269.436 302.971) rotate(-45.001)" fill="#cf9303"/>
  <line id="Line_112" data-name="Line 112" x1="39.948" y2="39.948" transform="translate(269.961 279.514)" fill="#f6eee2"/>
  <rect id="Rectangle_384" data-name="Rectangle 384" width="56.495" height="1.488" transform="translate(269.436 318.938) rotate(-45.001)" fill="#cf9303"/>
  <line id="Line_113" data-name="Line 113" x1="39.948" y2="39.948" transform="translate(269.961 295.48)" fill="#f6eee2"/>
  <rect id="Rectangle_385" data-name="Rectangle 385" width="56.494" height="1.488" transform="translate(269.436 334.902) rotate(-45.001)" fill="#cf9303"/>
  <line id="Line_114" data-name="Line 114" x1="39.948" y2="39.948" transform="translate(269.961 311.447)" fill="#f6eee2"/>
  <rect id="Rectangle_386" data-name="Rectangle 386" width="56.494" height="1.488" transform="translate(269.436 350.869) rotate(-45.001)" fill="#cf9303"/>
  <line id="Line_115" data-name="Line 115" x1="39.948" y2="39.948" transform="translate(269.961 327.414)" fill="#f6eee2"/>
  <rect id="Rectangle_387" data-name="Rectangle 387" width="56.494" height="1.488" transform="translate(269.436 366.836) rotate(-45.001)" fill="#cf9303"/>
  <line id="Line_116" data-name="Line 116" x1="39.948" y2="39.948" transform="translate(269.961 343.381)" fill="#f6eee2"/>
  <rect id="Rectangle_388" data-name="Rectangle 388" width="56.495" height="1.488" transform="translate(269.436 382.803) rotate(-45.001)" fill="#cf9303"/>
  <rect id="Rectangle_389" data-name="Rectangle 389" width="505.801" height="505.793" transform="translate(269 146.076)" fill="none"/>
  <path id="Path_13506" data-name="Path 13506" d="M-134.465,160.586H105.2a49.891,49.891,0,0,0,49.891-49.891V57.537" transform="translate(499.869 593.039)" fill="none" stroke="#cf9303" stroke-miterlimit="10" stroke-width="2"/>
  <path id="Path_13507" data-name="Path 13507" d="M155.092-69.705H49.891A49.891,49.891,0,0,0,0-19.814V196.691" transform="translate(216 823.332)" fill="none" stroke="#cf9303" stroke-miterlimit="10" stroke-width="2"/>
  <path id="Path_13508" data-name="Path 13508" d="M95.688,286.217h-45.8A49.891,49.891,0,0,1,0,236.325V-104.3" transform="translate(941.178 591.453) rotate(90)" fill="none" stroke="#cf9303" stroke-miterlimit="10" stroke-width="2"/>
  <g id="Group_3870" data-name="Group 3870" transform="translate(237.311 114.863)">
    <g id="Group_3869" data-name="Group 3869" clip-path="url(#clip-path)">
      <rect id="Rectangle_1399" data-name="Rectangle 1399" width="18" height="18" transform="translate(23.651 23.651)" fill="url(#linear-gradient)"/>
    </g>
  </g>
  <g id="Group_3870-2" data-name="Group 3870" transform="translate(524.18 504.514)">
    <g id="Group_3869-2" data-name="Group 3869" clip-path="url(#clip-path)">
      <rect id="Rectangle_1399-2" data-name="Rectangle 1399" width="18" height="18" transform="translate(23.651 23.651)" fill="url(#linear-gradient)"/>
    </g>
  </g>
  <g id="Group_3870-3" data-name="Group 3870" transform="translate(686.994 332.223)">
    <g id="Group_3869-3" data-name="Group 3869" clip-path="url(#clip-path)">
      <rect id="Rectangle_1399-3" data-name="Rectangle 1399" width="18" height="18" transform="translate(23.651 23.651)" fill="url(#linear-gradient)"/>
    </g>
  </g>
  <rect id="Rectangle_1435" data-name="Rectangle 1435" width="1500" height="1020" fill="none"/>
</svg>
