<svg xmlns="http://www.w3.org/2000/svg" xmlns:xlink="http://www.w3.org/1999/xlink" width="1132" height="818.716" viewBox="0 0 1132 818.716">
  <defs>
    <linearGradient id="linear-gradient" x1="0.877" y1="0.197" x2="0.16" y2="0.89" gradientUnits="objectBoundingBox">
      <stop offset="0" stop-color="#ceb772"/>
      <stop offset="1" stop-color="#9f8844"/>
    </linearGradient>
    <clipPath id="clip-path">
      <rect id="Rectangle_365" data-name="Rectangle 365" width="789" height="492" transform="translate(0 -0.226)" fill="none"/>
    </clipPath>
    <clipPath id="clip-path-4">
      <path id="Path_14102" data-name="Path 14102" d="M23.651,37.6a13.98,13.98,0,1,0,13.98-13.95A13.964,13.964,0,0,0,23.651,37.6" transform="translate(-23.651 -23.651)" fill="url(#linear-gradient)"/>
    </clipPath>
  </defs>
  <g id="Group_3874" data-name="Group 3874" transform="translate(-182 -203.001)">
    <text id="Brilliant_branding_and_beyond" data-name="Brilliant branding 
and beyond" transform="translate(951 481)" fill="#fff" font-size="72" font-family="Branch-Regular, Branch"><tspan x="0" y="0">Brilliant branding </tspan><tspan x="0" y="60">and beyond</tspan></text>
    <g id="Group_3873" data-name="Group 3873">
      <g id="Group_707" data-name="Group 707" transform="translate(182.354 203.227)">
        <g id="Group_526" data-name="Group 526" transform="translate(-0.353)" clip-path="url(#clip-path)">
          <g id="Group_517" data-name="Group 517">
            <g id="Group_3417" data-name="Group 3417">
              <path id="Path_339" data-name="Path 339" d="M848.052,173.742H380V0H676.267C770.99,0,848.052,77.565,848.052,172.907ZM381.66,172.072H846.391c-.446-94.04-76.591-170.4-170.124-170.4H381.66Z" transform="translate(-294.607)" fill="#cf9303"/>
              <path id="Path_356" data-name="Path 356" d="M319.085,525.084H232.039A232.038,232.038,0,0,1,0,293.046V206H319.085ZM1.671,207.671v85.375A230.367,230.367,0,0,0,232.039,523.414h85.375V207.671Z" transform="translate(0.477 -33.928)" fill="#cf9303"/>
              <path id="Path_364" data-name="Path 364" d="M380,443.736V207H616.736Zm1.671-235.065V439.7L612.7,208.671Z" transform="translate(-62.109 -34.093)" fill="#cf9303"/>
              <path id="Path_365" data-name="Path 365" d="M746.319,418.832a88.522,88.522,0,1,1,88.522-88.521,88.621,88.621,0,0,1-88.522,88.521m0-175.373a86.851,86.851,0,1,0,86.851,86.852,86.95,86.95,0,0,0-86.851-86.852" transform="translate(-107.862 -39.823)" fill="#cf9303"/>
              <rect id="Rectangle_353" data-name="Rectangle 353" width="319.364" height="1.671" transform="translate(319.092 289.654)" fill="#cf9303"/>
              <rect id="Rectangle_354" data-name="Rectangle 354" width="261.449" height="1.671" transform="translate(319.092 224.5)" fill="#cf9303"/>
              <rect id="Rectangle_355" data-name="Rectangle 355" width="319.364" height="1.671" transform="translate(319.092 202.782)" fill="#cf9303"/>
              <rect id="Rectangle_356" data-name="Rectangle 356" width="243.072" height="1.671" transform="translate(319.092 246.218)" fill="#cf9303"/>
              <rect id="Rectangle_357" data-name="Rectangle 357" width="234.719" height="1.671" transform="translate(319.092 267.936)" fill="#cf9303"/>
            </g>
          </g>
          <g id="Group_521" data-name="Group 521">
            <g id="Group_520" data-name="Group 520" clip-path="url(#clip-path)">
              <path id="Path_366" data-name="Path 366" d="M335.884,439.662H102V133.942a116.942,116.942,0,0,1,233.884,0Zm-232.213-1.671H334.213V133.942a115.271,115.271,0,1,0-230.543,0Z" transform="translate(-16.322 -2.8)" fill="#cf9303"/>
              <path id="Path_367" data-name="Path 367" d="M222.283,462.541H102V445H222.283Zm-118.613-1.671H220.613v-14.2H103.671Z" transform="translate(-16.322 -73.292)" fill="#cf9303"/>
              <path id="Path_368" data-name="Path 368" d="M246.507,481.541H102V464H246.507Zm-142.836-1.671H244.836v-14.2H103.671Z" transform="translate(-16.322 -76.421)" fill="#cf9303"/>
              <path id="Path_369" data-name="Path 369" d="M274.907,500.541H102V483H274.907Zm-171.236-1.671H273.236v-14.2H103.671Z" transform="translate(-16.322 -79.55)" fill="#cf9303"/>
              <path id="Path_370" data-name="Path 370" d="M304.978,519.541H102V502H304.978Zm-201.307-1.671H303.307v-14.2H103.671Z" transform="translate(-16.322 -82.68)" fill="#cf9303"/>
              <path id="Path_371" data-name="Path 371" d="M179,421.5H123.8l-.006-99.807c-.005-.144-.01-.287-.01-.432a27.654,27.654,0,0,1,55.309,0c0,.661-.03,1.372-.093,2.172Zm-53.532-1.671h51.861V323.366c.062-.822.09-1.489.09-2.107a25.984,25.984,0,0,0-51.967,0c0,.125,0,.25.008.374l.008.233Z" transform="translate(-19.911 -48.357)" fill="#cf9303"/>
              <path id="Path_372" data-name="Path 372" d="M140.861,422.6h-1.671l-.007-89.142c0-.144-.009-.287-.009-.431A27.672,27.672,0,0,1,176.206,307l-.566,1.571a26,26,0,0,0-34.794,24.453c0,.125,0,.249.008.374l.008.233Z" transform="translate(-22.445 -50.295)" fill="#cf9303"/>
              <path id="Path_373" data-name="Path 373" d="M193.317,382.909H140.193v-1.671h53.124a15.644,15.644,0,0,0,15.626-15.627V342.156a17.318,17.318,0,0,1,17.3-17.3h67.729A15.644,15.644,0,0,0,309.6,309.232v-2.859h1.671v2.859a17.317,17.317,0,0,1-17.3,17.3H226.241a15.645,15.645,0,0,0-15.628,15.627v23.455a17.317,17.317,0,0,1-17.3,17.3" transform="translate(-22.613 -50.46)" fill="#cf9303"/>
              <path id="Path_374" data-name="Path 374" d="M343.164,304.929l-.609-.608c-8.593-8.594-.092-17.45-.005-17.538l.591-.6.6.6c4.4,4.4,4.156,8.953,3.181,12a15.8,15.8,0,0,1-3.163,5.523Zm.005-16.318c-1.565,1.946-5.386,7.848-.06,13.863,1.54-2,5.263-7.974.06-13.863" transform="translate(-55.309 -47.134)" fill="#cf9303"/>
              <path id="Path_375" data-name="Path 375" d="M287.894,326.629l-.609-.608c-8.593-8.594-.092-17.45,0-17.539l.591-.6.6.6c4.4,4.4,4.156,8.953,3.181,12A15.8,15.8,0,0,1,288.484,326Zm.005-16.318c-1.565,1.946-5.386,7.848-.06,13.863,1.54-2,5.263-7.974.06-13.863" transform="translate(-46.206 -50.708)" fill="#cf9303"/>
              <path id="Path_376" data-name="Path 376" d="M312.894,347.629l-.609-.608c-8.593-8.594-.092-17.45-.005-17.539l.591-.6.6.6c4.4,4.4,4.156,8.953,3.181,12A15.8,15.8,0,0,1,313.484,347Zm.005-16.318c-1.565,1.946-5.386,7.848-.06,13.863,1.54-2,5.263-7.974.06-13.863" transform="translate(-50.324 -54.167)" fill="#cf9303"/>
              <path id="Path_377" data-name="Path 377" d="M254.894,347.629l-.609-.608c-8.593-8.594-.092-17.45-.005-17.539l.591-.6.6.6c4.4,4.4,4.156,8.953,3.181,12A15.806,15.806,0,0,1,255.484,347Zm.005-16.318c-1.564,1.946-5.386,7.848-.06,13.863,1.54-2,5.263-7.974.06-13.863" transform="translate(-40.771 -54.167)" fill="#cf9303"/>
            </g>
          </g>
          <g id="Group_525" data-name="Group 525">
            <g id="Group_524" data-name="Group 524" clip-path="url(#clip-path)">
              <path id="Path_378" data-name="Path 378" d="M96.407,165.685a46.777,46.777,0,1,1,46.777-46.777,46.83,46.83,0,0,1-46.777,46.777m0-91.883a45.106,45.106,0,1,0,45.106,45.106A45.157,45.157,0,0,0,96.407,73.8" transform="translate(-7.697 -11.88)" fill="#cf9303"/>
            </g>
          </g>
          <g id="Group_3870" data-name="Group 3870" transform="translate(601.697 254.773)">
            <g id="Group_3869" data-name="Group 3869" transform="translate(23.651 23.651)" clip-path="url(#clip-path-4)" style="isolation: isolate">
              <rect id="Rectangle_1399" data-name="Rectangle 1399" width="27.96" height="27.9" transform="translate(0 0.001)" fill="url(#linear-gradient)"/>
            </g>
          </g>
        </g>
      </g>
      <path id="Path_13504" data-name="Path 13504" d="M43.85,160.586H105.2a49.891,49.891,0,0,0,49.891-49.891v-180.4" transform="translate(667 566.414)" fill="none" stroke="#cf9303" stroke-miterlimit="10" stroke-width="2"/>
      <path id="Path_13505" data-name="Path 13505" d="M87.7-69.705H49.891A49.891,49.891,0,0,0,0-19.814V225.012" transform="translate(643.539 796.705)" fill="none" stroke="#cf9303" stroke-miterlimit="10" stroke-width="2"/>
    </g>
  </g>
</svg>
