<svg id="Group_3892" data-name="Group 3892" xmlns="http://www.w3.org/2000/svg" xmlns:xlink="http://www.w3.org/1999/xlink" width="1500" height="1146.045" viewBox="0 0 1500 1146.045">
  <defs>
    <linearGradient id="linear-gradient" x1="0.877" y1="0.197" x2="0.16" y2="0.89" gradientUnits="objectBoundingBox">
      <stop offset="0" stop-color="#ceb772"/>
      <stop offset="1" stop-color="#9f8844"/>
    </linearGradient>
    <clipPath id="clip-path">
      <rect id="Rectangle_1229" data-name="Rectangle 1229" width="948.691" height="450.443" fill="none"/>
    </clipPath>
    <clipPath id="clip-path-4">
      <path id="Path_14102" data-name="Path 14102" d="M23.651,32.651a9,9,0,1,0,9-9,9,9,0,0,0-9,9" fill="url(#linear-gradient)"/>
    </clipPath>
  </defs>
  <g id="Group_3876" data-name="Group 3876">
    <path id="Path_13506" data-name="Path 13506" d="M0,160.586H105.2a49.891,49.891,0,0,0,49.891-49.891V-15.525" transform="translate(545.236 591.516)" fill="none" stroke="#cf9303" stroke-miterlimit="10" stroke-width="2"/>
    <path id="Path_13507" data-name="Path 13507" d="M155.092-69.705H49.891A49.891,49.891,0,0,0,0-19.814L-1.322,324.232" transform="translate(390.145 821.809)" fill="none" stroke="#cf9303" stroke-miterlimit="10" stroke-width="2"/>
    <g id="Group_3644" data-name="Group 3644" transform="translate(275.654 249)">
      <g id="Group_3643" data-name="Group 3643" clip-path="url(#clip-path)">
        <g id="Group_3645" data-name="Group 3645" transform="translate(404.255 207)">
          <rect id="Rectangle_1230" data-name="Rectangle 1230" width="115.446" height="68.778" transform="translate(0 -0.001)" fill="#006877"/>
        </g>
        <g id="Group_3628" data-name="Group 3628">
          <g id="Group_3627" data-name="Group 3627" clip-path="url(#clip-path)">
            <path id="Path_13574" data-name="Path 13574" d="M104.362,48.08h61.665a26.911,26.911,0,0,1,26.911,26.91v55.816a26.911,26.911,0,0,0,26.91,26.911h69.825a26.91,26.91,0,0,1,26.91,26.91V216.14a26.911,26.911,0,0,0,26.911,26.91h17.692" transform="translate(28.241 13.011)" fill="none" stroke="#d89000" stroke-miterlimit="10" stroke-width="2"/>
            <path id="Path_13575" data-name="Path 13575" d="M98.221,184.637h45.188a12.7,12.7,0,0,0,12.7-12.7V120.708a12.7,12.7,0,0,1,12.7-12.7h77.354a12.7,12.7,0,0,1,12.7,12.7v99.124a12.7,12.7,0,0,0,12.7,12.7h91.792" transform="translate(26.579 29.229)" fill="none" stroke="#d89000" stroke-miterlimit="10" stroke-width="2"/>
            <path id="Path_13576" data-name="Path 13576" d="M124.127,361.159v10.261H15.17v-84.1H124.127v19.431" transform="translate(4.105 77.752)" fill="none" stroke="#cf9303" stroke-miterlimit="10" stroke-width="2"/>
            <path id="Path_13577" data-name="Path 13577" d="M74.541,329.468A37.271,37.271,0,1,1,37.271,292.2a37.271,37.271,0,0,1,37.271,37.271" transform="translate(0 79.07)" fill="#006877"/>
            <path id="Path_13578" data-name="Path 13578" d="M124.127,287.326,69.649,329.374,15.17,287.326" transform="translate(4.105 77.752)" fill="none" stroke="#cf9303" stroke-miterlimit="10" stroke-width="2"/>
            <path id="Path_13579" data-name="Path 13579" d="M87.511,310.53c4.889-4.889,9.725-7.913,17.186-7.913a27.018,27.018,0,1,1-17.186,47.866Z" transform="translate(23.681 81.89)" fill="none" stroke="#cf9303" stroke-miterlimit="10" stroke-width="2"/>
            <path id="Path_13580" data-name="Path 13580" d="M100.721,322.694l69.938-.539a10.15,10.15,0,0,0,10.023-10.15V192.86a10.151,10.151,0,0,1,10.151-10.151h79.835a10.15,10.15,0,0,1,10.15,10.151v18.882a10.151,10.151,0,0,0,10.151,10.151h73.441" transform="translate(27.256 49.442)" fill="none" stroke="#d89000" stroke-miterlimit="10" stroke-width="2"/>
            <path id="Path_13581" data-name="Path 13581" d="M433.822,186.136H498.4a15.833,15.833,0,0,1,15.833,15.833V343.58a15.833,15.833,0,0,0,15.833,15.834H736.156a15.833,15.833,0,0,0,15.833-15.834V330.971" transform="translate(117.394 50.369)" fill="none" stroke="#d89000" stroke-miterlimit="10" stroke-width="2"/>
            <path id="Path_13582" data-name="Path 13582" d="M649.637,267.89V197.91H750.885v67.746l-52.114,40.281Z" transform="translate(175.795 53.555)" fill="none" stroke="#d89000" stroke-miterlimit="10" stroke-width="2"/>
            <path id="Path_13583" data-name="Path 13583" d="M756.1,238.924h20.575V316H630.969V238.924h23.14" transform="translate(170.743 64.654)" fill="none" stroke="#d89000" stroke-miterlimit="10" stroke-width="2"/>
            <path id="Path_13584" data-name="Path 13584" d="M776.677,238.675,703.823,294.9l-72.854-56.229" transform="translate(170.743 64.587)" fill="none" stroke="#d89000" stroke-miterlimit="10" stroke-width="2"/>
            <line id="Line_204" data-name="Line 204" x2="69.782" transform="translate(840.893 270.565)" fill="none" stroke="#d89000" stroke-miterlimit="10" stroke-width="2"/>
            <line id="Line_205" data-name="Line 205" x2="69.782" transform="translate(840.893 284.31)" fill="none" stroke="#d89000" stroke-miterlimit="10" stroke-width="2"/>
            <line id="Line_206" data-name="Line 206" x2="69.782" transform="translate(840.893 298.055)" fill="none" stroke="#d89000" stroke-miterlimit="10" stroke-width="2"/>
            <line id="Line_207" data-name="Line 207" x2="69.782" transform="translate(840.893 311.8)" fill="none" stroke="#d89000" stroke-miterlimit="10" stroke-width="2"/>
          </g>
        </g>
        <g id="Group_3642" data-name="Group 3642">
          <g id="Group_3641" data-name="Group 3641" clip-path="url(#clip-path)">
            <circle id="Ellipse_83" data-name="Ellipse 83" cx="81.954" cy="81.954" r="81.954" transform="translate(389.721 176.082)" fill="none" stroke="#cf9303" stroke-miterlimit="10" stroke-width="2"/>
            <path id="Path_13585" data-name="Path 13585" d="M392.7,249.118H356.974a.6.6,0,0,1-.374-1.093l3.584-2.375a2.63,2.63,0,0,0,1.187-1.912l1.169-11.357h24.591l1.17,11.357a2.627,2.627,0,0,0,1.187,1.912l3.584,2.375A.6.6,0,0,1,392.7,249.118Z" transform="translate(96.424 62.884)" fill="none" stroke="#cf9303" stroke-miterlimit="10" stroke-width="2"/>
            <rect id="Rectangle_1225" data-name="Rectangle 1225" width="122.809" height="84.65" rx="2.336" transform="translate(409.855 210.549)" fill="none" stroke="#cf9303" stroke-miterlimit="10" stroke-width="2"/>
            <line id="Line_208" data-name="Line 208" x2="122.809" transform="translate(409.856 283.976)" fill="none" stroke="#cf9303" stroke-miterlimit="10" stroke-width="2"/>
            <rect id="Rectangle_1226" data-name="Rectangle 1226" width="112.541" height="62.721" transform="translate(414.99 216.057)" fill="none" stroke="#cf9303" stroke-miterlimit="10" stroke-width="1"/>
            <path id="Path_13586" data-name="Path 13586" d="M127.889,56.565A55.565,55.565,0,1,1,72.324,1,55.566,55.566,0,0,1,127.889,56.565Z" transform="translate(4.535 0.27)" fill="none" stroke="#cf9303" stroke-miterlimit="10" stroke-width="2"/>
            <path id="Path_13587" data-name="Path 13587" d="M77.356,198.2a37.271,37.271,0,1,1-37.271-37.271A37.271,37.271,0,0,1,77.356,198.2" transform="translate(0.762 43.549)" fill="#006877"/>
            <path id="Path_13588" data-name="Path 13588" d="M124.771,184.168a55.574,55.574,0,1,0,2.122,28.929" transform="translate(4.535 39.779)" fill="none" stroke="#cf9303" stroke-miterlimit="10" stroke-width="2"/>
            <path id="Path_13589" data-name="Path 13589" d="M79.026,54.977l-52.134-30.1v60.2Z" transform="translate(7.277 6.732)" fill="#006877"/>
            <path id="Rectangle_1227" data-name="Rectangle 1227" d="M4.874,0H40.656a4.875,4.875,0,0,1,4.875,4.875V87.007a4.874,4.874,0,0,1-4.874,4.874H4.875A4.875,4.875,0,0,1,0,87.006V4.874A4.874,4.874,0,0,1,4.874,0Z" transform="translate(54.093 10.896)" fill="none" stroke="#cf9303" stroke-miterlimit="10" stroke-width="2"/>
            <path id="Path_13592" data-name="Path 13592" d="M81.517,10.844h-.029l-.046-.005H76.515a.551.551,0,0,0-.522.5c0,.018,0,.037,0,.056V11.4a2.642,2.642,0,0,1-2.639,2.517H56.1A2.641,2.641,0,0,1,53.462,11.4v-.006c0-.019,0-.038,0-.056a.552.552,0,0,0-.522-.5H48.009l-.044.005h-.029a3.321,3.321,0,0,0-3.1,3.312V93.651a3.335,3.335,0,0,0,3.056,3.309l.046,0h.047q.086,0,.172,0H81.3c.057,0,.116,0,.173,0h.047l.044,0a3.335,3.335,0,0,0,3.057-3.309V14.157A3.321,3.321,0,0,0,81.517,10.844Z" transform="translate(12.133 2.933)" fill="none" stroke="#cf9303" stroke-miterlimit="10" stroke-width="1"/>
            <path id="Path_13594" data-name="Path 13594" d="M24.34,208.29v3.873l0,0a3.125,3.125,0,0,0,1.8,2.578L60.2,234.4c2.678,1.546,7.4,1.351,10.5-.435l69.323-40.024c1.665-.962,2.525-2.2,2.551-3.372h.008v-3.8" transform="translate(6.587 50.542)" fill="none" stroke="#cf9303" stroke-miterlimit="10" stroke-width="1"/>
            <path id="Path_13595" data-name="Path 13595" d="M60.2,235.627l-34.052-19.66c-2.678-1.546-2.339-4.273.753-6.06l69.323-40.023c3.094-1.786,7.815-1.982,10.5-.436l34.051,19.66c2.68,1.548,2.34,4.273-.753,6.06L70.693,235.193C67.6,236.978,62.877,237.174,60.2,235.627Z" transform="translate(6.587 45.571)" fill="none" stroke="#cf9303" stroke-miterlimit="10" stroke-width="1"/>
            <path id="Path_13597" data-name="Path 13597" d="M103.992,182.124,95.6,177.281c-.154-.088-.133-.244.043-.346a.666.666,0,0,1,.6-.025l8.39,4.844c.152.089.133.244-.043.346A.665.665,0,0,1,103.992,182.124Z" transform="translate(25.843 47.857)" fill="none" stroke="#cf9303" stroke-miterlimit="10" stroke-width="0.5"/>
            <path id="Path_13598" data-name="Path 13598" d="M93.146,175.49a1.265,1.265,0,0,1-1.154,0,.351.351,0,0,1,0-.665,1.269,1.269,0,0,1,1.154,0A.35.35,0,0,1,93.146,175.49Z" transform="translate(24.828 47.271)" fill="none" stroke="#cf9303" stroke-miterlimit="10" stroke-width="0.5"/>
            <path id="Path_13599" data-name="Path 13599" d="M95.2,176.68a1.428,1.428,0,0,1-1.29,0,.393.393,0,0,1,0-.745,1.428,1.428,0,0,1,1.29,0A.393.393,0,0,1,95.2,176.68Z" transform="translate(25.341 47.567)" fill="none" stroke="#cf9303" stroke-miterlimit="10" stroke-width="0.5"/>
          </g>
        </g>
        <g id="Group_3870" data-name="Group 3870" transform="translate(217.043 199.738)">
          <g id="Group_3869" data-name="Group 3869" clip-path="url(#clip-path-4)">
            <rect id="Rectangle_1399" data-name="Rectangle 1399" width="18" height="18" transform="translate(23.651 23.651)" fill="url(#linear-gradient)"/>
          </g>
        </g>
        <g id="Group_3870-2" data-name="Group 3870" transform="translate(175.043 296)">
          <g id="Group_3869-2" data-name="Group 3869" clip-path="url(#clip-path-4)">
            <rect id="Rectangle_1399-2" data-name="Rectangle 1399" width="18" height="18" transform="translate(23.651 23.651)" fill="url(#linear-gradient)"/>
          </g>
        </g>
        <g id="Group_3870-3" data-name="Group 3870" transform="translate(599.043 296)">
          <g id="Group_3869-3" data-name="Group 3869" clip-path="url(#clip-path-4)">
            <rect id="Rectangle_1399-3" data-name="Rectangle 1399" width="18" height="18" transform="translate(23.651 23.651)" fill="url(#linear-gradient)"/>
          </g>
        </g>
      </g>
    </g>
    <path id="Path_14104" data-name="Path 14104" d="M16.128,0A17.3,17.3,0,0,0,33.336-17.64,17.839,17.839,0,0,0,15.552-35.28H2.52c1.872.576,2.448,2.3,2.448,4.1V-4.1c0,1.8-.5,3.528-2.448,4.1Zm-3.6-34.7c10.368,0,16.992,6.7,16.992,17.064,0,10.3-6.7,16.992-16.992,16.992H8.352V-34.7Zm28.224,5.472a1.89,1.89,0,0,0,2.016-2.016,1.89,1.89,0,0,0-2.016-2.016,1.947,1.947,0,0,0-2.088,2.016A1.947,1.947,0,0,0,40.752-29.232ZM44.784,0c-1.872-.576-2.448-2.232-2.448-4.1V-25.2L37.8-22.032c1.44,0,1.656,2.088,1.656,3.1V-4.1c0,1.872-.5,3.528-2.376,4.1ZM58.1-5.256c5.688,0,11.232-4.248,11.232-10.3,0-5.328-4.32-9.216-9.36-9.936A10.26,10.26,0,0,1,70.2-34.416c2.376,0,4.68.216,4.68,3.1l-.144.936c0,1.44.432,2.448,2.088,2.448a1.78,1.78,0,0,0,1.944-1.944c0-3.1-4.392-5.112-8.568-5.112a10.857,10.857,0,0,0-10.728,9.36h-1.3c-5.616,0-11.016,4.32-11.016,10.152S52.416-5.256,58.1-5.256ZM80.784,0c-1.872-.576-2.376-2.376-2.376-4.1V-25.2l-4.536,3.1c1.512,0,1.656,2.16,1.656,3.168V-4.1c0,1.8-.5,3.528-2.376,4.1Zm-23.4-25.128c5.256,0,8.568,5.688,8.568,10.44,0,4.032-2.52,8.856-7.128,8.856C53.5-5.832,50.4-11.52,50.4-16.2,50.4-20.232,52.848-25.128,57.384-25.128ZM46.944,7.92c0,5.9,6.336,7.776,11.16,7.776,5.184,0,11.376-2.16,11.376-8.352,0-9.936-18.792-4.248-18.792-9.432,0-1.3,1.44-2.52,2.376-3.168C51.048-4.9,48.6-3.168,48.6-.864c0,7.632,19.944,1.872,19.944,9,0,4.248-5.472,6.84-9.144,6.84-4.968,0-10.512-3.96-10.512-9.288a7.48,7.48,0,0,1,.792-3.312A7.173,7.173,0,0,0,46.944,7.92ZM84.888-24.552H86.9V-7.488C86.9-3.528,88.632,0,93.1,0c2.3,0,5.112-1.152,6.12-3.456a6.2,6.2,0,0,1-4.68,2.232c-2.952,0-4.752-2.52-4.752-5.256V-24.552H94.32V-25.2H89.784V-35.28a4.556,4.556,0,0,0-2.88,4.608V-25.2H84.888ZM101.016-5.328c0,3.672,3.24,5.4,6.552,5.4a9.6,9.6,0,0,0,7.416-2.808A9.921,9.921,0,0,1,109.3-1.08a4.4,4.4,0,0,1-4.752-4.536c0-5.976,6.912-6.912,11.376-8.28V-4.68c0,2.52.5,4.752,3.528,4.752a4.2,4.2,0,0,0,3.6-2.3,3.368,3.368,0,0,1-2.016.648c-1.8,0-2.3-1.584-2.3-3.1V-17.424c0-5.184-2.232-7.848-7.488-7.848-2.88,0-9.072,2.3-9.072,5.688a1.838,1.838,0,0,0,1.8,2.016,1.7,1.7,0,0,0,1.944-1.872,2.953,2.953,0,0,0-.072-.792l-.144-.576a2.953,2.953,0,0,1-.072-.792c0-2.16,3.384-3.024,5.112-3.024,3.888,0,5.184,3.816,5.184,7.056v2.808C113.688-12.672,101.016-13.464,101.016-5.328ZM124.848,0h7.992c-2.016-.72-2.592-2.376-2.592-4.392l-.072-33.192L125.568-34.2c1.584,0,1.8,2.16,1.8,3.384V-4.392C127.368-2.376,126.864-.72,124.848,0Zm53.424-24.12c4.032,0,5.4,3.384,5.4,6.912V-4.392c0,1.944-.5,3.744-2.52,4.392h8.064c-2.016-.648-2.664-2.376-2.664-4.392V-16.56c0-4.608-2.088-8.784-7.128-8.784a10.757,10.757,0,0,0-8.064,4.032A11.773,11.773,0,0,1,178.272-24.12Zm-15.912,0c4.032,0,5.472,3.384,5.472,6.912V-4.392c0,1.944-.576,3.744-2.592,4.392H173.3c-2.016-.648-2.592-2.376-2.592-4.392V-16.56c0-4.608-2.088-8.784-7.2-8.784a10.877,10.877,0,0,0-8.064,4.032A11.773,11.773,0,0,1,162.36-24.12ZM156.456,0c-2.016-.72-2.592-2.376-2.592-4.392L153.792-25.2l-4.608,3.384c1.584,0,1.8,2.16,1.8,3.312V-4.392c0,2.016-.5,3.672-2.52,4.392Zm42.48.072a8.848,8.848,0,0,0,7.056-3.1,9.861,9.861,0,0,1-5.4,1.944c-3.1,0-5.184-1.944-5.184-5.04,0-5.544,5.832-7.056,10.152-7.992,6.552-1.44,12.24-2.952,17.424-7.488a5.109,5.109,0,0,1,2.808-1.152c1.512,0,1.944.936,3.024.936,1.224,0,1.872-.576,1.872-1.8,0-1.152-1.008-1.584-2.016-1.584-3.024,0-5.472,2.952-7.7,4.608v-4.536l-4.536,3.168c1.512,0,1.656,2.088,1.656,3.168a30.966,30.966,0,0,1-8.712,3.24c0-5.76-.648-9.648-7.416-9.648-2.88,0-9.072,2.232-9.072,5.616a1.838,1.838,0,0,0,1.8,2.016c1.656,0,1.872-1.008,1.872-2.376l-.216-1.08v-.5c0-2.232,3.312-3.1,5.112-3.1,3.96,0,5.112,3.888,5.112,7.056V-14.9c-4.464.72-14.688,2.952-14.688,8.784C191.88-2.016,195.12.072,198.936.072ZM223.344,0c-1.872-.864-2.376-2.16-2.376-4.1V-18.936a15.552,15.552,0,0,1-2.88,1.944V-4.1c0,1.872-.432,3.384-2.376,4.1ZM206.568-4.752c0,2.592.576,4.824,3.6,4.824,1.224,0,3.168-1.08,3.528-2.3a3.015,3.015,0,0,1-1.944.648c-1.8,0-2.376-1.584-2.376-3.168V-13.9c-.936.216-1.872.36-2.808.648ZM238.824,0c-2.016-.72-2.592-2.376-2.592-4.392l-.072-33.192L231.552-34.2c1.584,0,1.8,2.16,1.8,3.384V-4.392c0,2.016-.5,3.672-2.52,4.392Zm-1.512-13.608L249.12,0h5.616a9.11,9.11,0,0,1-4.1-2.592l-11.016-12.6,8.712-8.064A10.859,10.859,0,0,1,251.64-25.2h-6.408a1.992,1.992,0,0,1,1.512,1.8,4.265,4.265,0,0,1-1.08,2.3Zm13.68,1.584A12.068,12.068,0,0,0,263.16.36c3.96,0,8.208-2.232,9.72-6.048-1.512,2.952-6.264,3.96-9.288,3.96-7.056,0-9.576-6.264-9.576-12.312H272.88c0-5.544-3.024-11.088-9.216-11.088C255.672-25.128,250.992-19.872,250.992-12.024ZM263.016-24.7c3.672,0,7.344,2.232,7.344,6.336,0,1.944-1.08,3.6-3.24,3.6H254.088C254.088-19.512,258.048-24.7,263.016-24.7Zm13.176.144h2.016V-7.488c0,3.96,1.728,7.488,6.192,7.488,2.3,0,5.112-1.152,6.12-3.456a6.2,6.2,0,0,1-4.68,2.232c-2.952,0-4.752-2.52-4.752-5.256V-24.552h4.536V-25.2h-4.536V-35.28a4.556,4.556,0,0,0-2.88,4.608V-25.2h-2.016Zm18.5-4.68a1.89,1.89,0,0,0,2.016-2.016,1.89,1.89,0,0,0-2.016-2.016,1.947,1.947,0,0,0-2.088,2.016A1.947,1.947,0,0,0,294.7-29.232ZM298.728,0c-1.872-.576-2.448-2.232-2.448-4.1V-25.2l-4.536,3.168c1.44,0,1.656,2.088,1.656,3.1V-4.1c0,1.872-.5,3.528-2.376,4.1Zm17.064-24.12c4.032,0,5.472,3.384,5.472,6.912V-4.392c0,1.944-.576,3.744-2.592,4.392h8.064c-2.016-.648-2.592-2.376-2.592-4.392V-16.56c0-4.608-2.088-8.784-7.2-8.784a10.877,10.877,0,0,0-8.064,4.032A11.773,11.773,0,0,1,315.792-24.12ZM309.888,0c-2.016-.72-2.592-2.376-2.592-4.392L307.224-25.2l-4.608,3.384c1.584,0,1.8,2.16,1.8,3.312V-4.392c0,2.016-.5,3.672-2.52,4.392Zm38.736-25.7c1.152,0,2.088,1.008,3.24,1.008a1.778,1.778,0,0,0,1.944-1.8c0-1.224-1.152-1.728-2.232-1.728a5.265,5.265,0,0,0-4.176,2.736A3.363,3.363,0,0,1,348.624-25.7ZM339.912-5.328c5.688,0,11.232-4.248,11.232-10.224,0-6.048-5.4-10.152-11.16-10.152-5.616,0-11.016,4.32-11.016,10.152C328.968-9.648,334.224-5.328,339.912-5.328Zm-7.7-10.944c0-4.032,2.448-8.856,6.984-8.856,5.256,0,8.568,5.616,8.568,10.368,0,4.1-2.52,8.856-7.128,8.856C335.3-5.9,332.208-11.52,332.208-16.272ZM331.488,2.3a7.285,7.285,0,0,0-2.736,5.544c0,5.9,6.336,7.848,11.16,7.848,5.184,0,11.448-2.232,11.448-8.352,0-9.936-18.864-4.32-18.864-9.5,0-1.3,1.44-2.52,2.376-3.168-2.016.36-4.464,2.16-4.464,4.392,0,7.632,19.944,1.872,19.944,9.072,0,4.176-5.472,6.768-9.144,6.768-4.968,0-10.512-3.888-10.512-9.288A7.48,7.48,0,0,1,331.488,2.3Zm37.584-33.552a1.947,1.947,0,0,0,2.088,2.016,1.89,1.89,0,0,0,2.016-2.016,1.89,1.89,0,0,0-2.016-2.016A1.947,1.947,0,0,0,369.072-31.248ZM359.784,9.288c0,2.088,3.888,3.1,5.544,3.1,6.48,0,7.272-7.416,7.272-12.384V-25.2l-4.536,3.168c1.44,0,1.656,2.088,1.656,3.1V1.152c0,2.736.36,10.584-3.744,10.584-3.528,0-1.872-4.248-4.68-4.248A1.6,1.6,0,0,0,359.784,9.288ZM376.92-12.6A12.706,12.706,0,0,0,389.664.072a12.629,12.629,0,0,0,12.6-12.672,12.691,12.691,0,0,0-12.672-12.672A12.691,12.691,0,0,0,376.92-12.6Zm11.808-11.952c6.624,0,10.368,7.056,10.368,12.96,0,5.184-2.952,11.016-8.784,11.016-6.624,0-10.44-7.128-10.44-12.96C379.872-18.72,382.9-24.552,388.728-24.552Zm16.7,2.952c1.44.072,1.8,1.368,1.8,2.592V-8.64c0,5.616,3.384,8.784,8.5,8.784A13.05,13.05,0,0,0,424.3-3.672V0L428.9-3.384c-1.512,0-1.8-2.16-1.8-3.312,5.544-6.7,9.5-15.912,14.976-15.984,1.3,0,2.232.864,3.1.864a1.7,1.7,0,0,0,1.872-1.728c0-1.08-1.08-1.656-2.088-1.656-2.88,0-5.4,1.656-7.7,4.176V-25.2l-4.536,3.168c1.44,0,1.656,2.088,1.656,3.1v1.44C429.12-10.44,424.3-1.08,416.808-1.08c-4.032,0-6.768-2.376-6.768-6.912V-25.2Zm17.064,0c1.44.072,1.8,1.368,1.8,2.592V-5.832A19.094,19.094,0,0,0,427.1-8.856V-25.2ZM439.632,0c-1.872-.576-2.376-2.232-2.376-4.1V-18.648a30.3,30.3,0,0,0-2.88,3.744V-4.1c0,1.872-.5,3.528-2.448,4.1Zm24.336-24.12c4.032,0,5.472,3.384,5.472,6.912V-4.392c0,1.944-.576,3.744-2.592,4.392h8.064c-2.016-.648-2.592-2.376-2.592-4.392V-16.56c0-4.608-2.088-8.784-7.2-8.784a10.877,10.877,0,0,0-8.064,4.032A11.773,11.773,0,0,1,463.968-24.12ZM458.064,0c-2.016-.72-2.592-2.376-2.592-4.392L455.4-25.2l-4.608,3.384c1.584,0,1.8,2.16,1.8,3.312V-4.392c0,2.016-.5,3.672-2.52,4.392Zm18.864-12.024A12.068,12.068,0,0,0,489.1.36c3.96,0,8.208-2.232,9.72-6.048-1.512,2.952-6.264,3.96-9.288,3.96-7.056,0-9.576-6.264-9.576-12.312h18.864c0-5.544-3.024-11.088-9.216-11.088C481.608-25.128,476.928-19.872,476.928-12.024ZM488.952-24.7c3.672,0,7.344,2.232,7.344,6.336,0,1.944-1.08,3.6-3.24,3.6H480.024C480.024-19.512,483.984-24.7,488.952-24.7ZM503.5-21.1l9,20.3-3.96,8.928c-.72,1.512-2.592,1.08-3.888,1.08-1.08,0-1.872.5-1.872,1.656A1.954,1.954,0,0,0,504.72,12.6c2.088,0,3.528-2.088,4.248-3.816C513.5-1.3,517.9-11.52,522.5-21.6a6.063,6.063,0,0,1,4.32-3.6h-7.776a3.009,3.009,0,0,1,2.448,3.24c0,1.728-6.264,14.976-7.344,17.5C513-6.912,506.16-21.312,506.16-22.9a2.377,2.377,0,0,1,1.44-2.3h-7.7C501.912-24.408,502.7-22.968,503.5-21.1ZM527.472-7.272V-1.3A34.974,34.974,0,0,0,536.9.288c4.464,0,8.928-1.872,8.928-7.056,0-8.208-16.2-6.408-16.2-13.824,0-3.024,3.672-4.464,6.264-4.464a9.356,9.356,0,0,1,8.712,6.048V-23.76a31.283,31.283,0,0,0-8.5-1.728c-4.248,0-8.28,2.376-8.28,7.056,0,8.5,16.128,7.056,16.128,13.464,0,3.816-4.608,4.464-7.488,4.464C532.224-.5,528.912-3.456,527.472-7.272ZM7.488,60.072A9.8,9.8,0,0,0,14.9,57.264,9.921,9.921,0,0,1,9.216,58.92a4.4,4.4,0,0,1-4.752-4.536c0-3.384,2.52-5.9,5.544-6.984a44.213,44.213,0,0,1,5.328-1.3c7.344-1.512,12.24-2.88,18.144-7.848a8.3,8.3,0,0,1,5.76-2.376c4.032,0,5.472,3.528,5.472,6.984V55.536c0,2.016-.576,3.816-2.592,4.464h8.064c-2.016-.648-2.664-2.448-2.664-4.464V43.44c0-4.392-2.016-8.712-7.056-8.712-4.752,0-6.264,2.664-9.72,5.04l-.072-4.9-4.536,3.384c1.512,0,1.8,2.16,1.8,3.312a39.34,39.34,0,0,1-9.36,3.384c0-5.9-.36-10.152-7.488-10.152-2.808,0-9,2.3-9,5.688a1.778,1.778,0,0,0,1.8,1.944c1.224,0,1.944-.5,1.944-1.8,0-.72-.288-1.368-.288-2.16,0-2.232,3.384-3.1,5.112-3.1,3.888,0,5.184,3.888,5.184,7.056v3.1a46.45,46.45,0,0,0-6.264,1.44c-3.96,1.08-8.64,2.736-8.64,7.7C.936,58.344,4.176,60.072,7.488,60.072ZM25.416,60h7.92c-2.016-.72-2.52-2.448-2.52-4.464L30.744,41.5a11.088,11.088,0,0,1-2.808,1.656V55.536C27.936,57.552,27.432,59.28,25.416,60ZM15.84,55.32c0,2.52.432,4.752,3.456,4.752a4.2,4.2,0,0,0,3.6-2.3,3.368,3.368,0,0,1-2.016.648c-1.8,0-2.3-1.656-2.3-3.1V46.392c-.864.288-1.872.432-2.736.72Zm47.232,4.752A9.084,9.084,0,0,0,70.56,55.9c-2.016,1.944-3.672,2.952-6.552,2.952-5.832,0-8.424-7.056-8.424-11.952,0-4.968,2.808-11.664,8.568-11.664,3.672,0,7.776,3.168,7.776,6.984V59.928l4.68-3.528c-1.512-.144-1.872-1.44-1.872-2.736V22.632l-4.68,3.6c1.656,0,1.872,2.16,1.872,3.384v8.136c-2.376-2.088-4.1-3.024-7.416-3.024-7.488,0-12.1,6.12-12.1,13.248C52.416,54.168,56.52,60.072,63.072,60.072Zm76.176-17.28V55.608c0,1.944-.576,3.744-2.592,4.392h8.064c-2.016-.648-2.592-2.376-2.592-4.392V43.44c0-4.608-2.088-8.784-7.2-8.784a8.937,8.937,0,0,0-1.944.216c-3.1.432-5.544,2.592-7.776,5.544V34.8L120.6,38.184c1.584,0,1.8,2.16,1.8,3.312v2.952c-4.464,7.056-8.856,15.264-16.992,14.9-6.048-.5-9.576-7.272-9.576-12.888,0-5.184,3.024-11.016,8.856-11.016,6.624,0,10.368,7.056,10.368,12.96a13.527,13.527,0,0,1-1.944,7.056,34.4,34.4,0,0,0,4.968-5.832c.072-.72.144-1.512.144-2.232a12.672,12.672,0,1,0-12.6,12.672,11.479,11.479,0,0,0,7.056-2.448c6.912-4.9,10.584-16.2,16.344-20.448a8.156,8.156,0,0,1,4.392-1.44C136.584,35.736,139.248,38.112,139.248,42.792ZM127.872,60c-2.016-.72-2.592-2.376-2.592-4.392l-.072-12.672L122.4,47.112v8.5c0,2.016-.5,3.672-2.52,4.392Zm17.352,0h7.992c-2.016-.72-2.592-2.376-2.592-4.392l-.072-33.192L145.944,25.8c1.584,0,1.8,2.16,1.8,3.384V55.608C147.744,57.624,147.24,59.28,145.224,60Zm14.832-29.232a2.016,2.016,0,1,0,0-4.032,2.017,2.017,0,1,0,0,4.032ZM164.088,60c-1.872-.576-2.448-2.232-2.448-4.1V34.8L157.1,37.968c1.44,0,1.656,2.088,1.656,3.1V55.9c0,1.872-.5,3.528-2.376,4.1Zm17.064-24.12c4.032,0,5.472,3.384,5.472,6.912V55.608c0,1.944-.576,3.744-2.592,4.392H192.1c-2.016-.648-2.592-2.376-2.592-4.392V43.44c0-4.608-2.088-8.784-7.2-8.784a10.877,10.877,0,0,0-8.064,4.032A11.773,11.773,0,0,1,181.152,35.88ZM175.248,60c-2.016-.72-2.592-2.376-2.592-4.392L172.584,34.8l-4.608,3.384c1.584,0,1.8,2.16,1.8,3.312V55.608c0,2.016-.5,3.672-2.52,4.392Zm18.864-12.024A12.068,12.068,0,0,0,206.28,60.36c3.96,0,8.208-2.232,9.72-6.048-1.512,2.952-6.264,3.96-9.288,3.96-7.056,0-9.576-6.264-9.576-12.312H216c0-5.544-3.024-11.088-9.216-11.088C198.792,34.872,194.112,40.128,194.112,47.976ZM206.136,35.3c3.672,0,7.344,2.232,7.344,6.336,0,1.944-1.08,3.6-3.24,3.6H197.208C197.208,40.488,201.168,35.3,206.136,35.3ZM261,46.248a14.508,14.508,0,0,1,.432-3.6,24.681,24.681,0,0,0-3.384,5.04c0,6.84,5.976,12.168,12.6,12.168a12.636,12.636,0,0,0-.072-25.272c-3.744,0-7.272,2.16-9.648,5.112-3.96,4.032-6.048,18.792-15.84,18.864-7.056,0-9.864-6.408-9.864-12.6,0-4.968,3.528-10.728,9-10.728,2.808,0,5.832,2.16,5.832,5.112a1.967,1.967,0,0,0,1.8,2.16c1.08,0,1.584-1.08,1.584-2.016,0-4.1-5.256-5.688-8.568-5.688-7.776,0-12.672,5.472-12.672,13.1,0,6.552,4.68,12.456,11.448,12.24,10.008-.36,12.24-11.3,15.768-16.632a14.164,14.164,0,0,1,2.592-2.52c1.368-3.024,4.032-5.616,7.776-5.616,6.552,0,10.3,6.984,10.3,12.816,0,5.184-2.952,10.944-8.784,10.944C264.744,59.136,261,52.08,261,46.248ZM297.648,35.88c4.032,0,5.472,3.384,5.472,6.912V55.608c0,1.944-.576,3.744-2.592,4.392h8.064c-2.016-.648-2.592-2.376-2.592-4.392V43.44c0-4.608-2.088-8.784-7.2-8.784a10.877,10.877,0,0,0-8.064,4.032A11.773,11.773,0,0,1,297.648,35.88ZM291.744,60c-2.016-.72-2.592-2.376-2.592-4.392L289.08,34.8l-4.608,3.384c1.584,0,1.8,2.16,1.8,3.312V55.608c0,2.016-.5,3.672-2.52,4.392Zm19.872-21.1,9.36,21.168L330.624,38.4a6.063,6.063,0,0,1,4.32-3.6h-7.776a3.008,3.008,0,0,1,2.448,3.24,4.077,4.077,0,0,1-.216,1.3l-7.128,16.2L314.5,38.256a3.261,3.261,0,0,1-.216-1.152,2.377,2.377,0,0,1,1.44-2.3h-7.7C310.032,35.592,310.824,37.032,311.616,38.9Zm47.088,8.28c1.728-3.528,3.24-7.056,6.048-9.288a5.268,5.268,0,0,1,2.232-.648c1.44,0,2.3.864,3.168.864a1.666,1.666,0,0,0,1.872-1.728c0-1.08-1.08-1.656-2.088-1.656a7.2,7.2,0,0,0-4.68,2.088,14.694,14.694,0,0,0-3.024,2.952v-4.9l-4.536,3.1c1.512,0,1.728,2.088,1.728,3.1v3.528c-.432.792-.792,1.584-1.152,2.376-2.016,4.608-4.248,9.432-9.288,11.376a11.644,11.644,0,0,1-4.68.432c-7.56-.576-9.5-7.416-9.144-12.816h18.864c0-5.544-3.024-11.088-9.216-11.088-7.992,0-12.672,5.256-12.672,13.1A12.068,12.068,0,0,0,344.3,60.36c5.112,0,9-3.168,11.52-7.272a.223.223,0,0,0,.072-.144A53.252,53.252,0,0,0,358.7,47.184ZM344.16,35.3c3.672,0,7.344,2.232,7.344,6.336,0,1.944-1.08,3.6-3.24,3.6H335.232C335.232,40.488,339.192,35.3,344.16,35.3ZM364.608,60c-1.8-.576-2.376-2.232-2.376-4.1V42.144c-.144.5-2.376,5.184-2.808,5.976V55.9c0,1.872-.5,3.528-2.448,4.1Zm7.632-7.272V58.7a34.974,34.974,0,0,0,9.432,1.584c4.464,0,8.928-1.872,8.928-7.056,0-8.208-16.2-6.408-16.2-13.824,0-3.024,3.672-4.464,6.264-4.464a9.356,9.356,0,0,1,8.712,6.048V36.24a31.284,31.284,0,0,0-8.5-1.728c-4.248,0-8.28,2.376-8.28,7.056,0,8.5,16.128,7.056,16.128,13.464,0,3.816-4.608,4.464-7.488,4.464C376.992,59.5,373.68,56.544,372.24,52.728Zm25.2-21.96a2.016,2.016,0,0,0,0-4.032,2.017,2.017,0,1,0,0,4.032ZM401.472,60c-1.872-.576-2.448-2.232-2.448-4.1V34.8l-4.536,3.168c1.44,0,1.656,2.088,1.656,3.1V55.9c0,1.872-.5,3.528-2.376,4.1Zm49.9-17.208V55.608c0,1.944-.576,3.744-2.592,4.392h8.064c-2.016-.648-2.592-2.376-2.592-4.392V43.44c0-4.608-2.088-8.784-7.2-8.784a8.937,8.937,0,0,0-1.944.216c-3.1.432-5.544,2.592-7.776,5.544V34.8l-4.608,3.384c1.584,0,1.8,2.16,1.8,3.312v2.952c-4.464,7.056-8.856,15.264-16.992,14.9-6.048-.5-9.576-7.272-9.576-12.888,0-5.184,3.024-11.016,8.856-11.016,6.624,0,10.368,7.056,10.368,12.96a13.527,13.527,0,0,1-1.944,7.056,34.4,34.4,0,0,0,4.968-5.832c.072-.72.144-1.512.144-2.232a12.672,12.672,0,1,0-12.6,12.672,11.479,11.479,0,0,0,7.056-2.448c6.912-4.9,10.584-16.2,16.344-20.448a8.156,8.156,0,0,1,4.392-1.44C448.7,35.736,451.368,38.112,451.368,42.792ZM439.992,60c-2.016-.72-2.592-2.376-2.592-4.392l-.072-12.672-2.808,4.176v8.5c0,2.016-.5,3.672-2.52,4.392Zm34.776-24.48v20.3c0,1.8-.5,3.6-2.448,4.176h7.7c-1.872-.576-2.448-2.376-2.448-4.176V35.52h4.464V34.8h-4.464c0-2.808-.648-11.736,3.744-11.736,3.528,0,1.872,4.248,4.608,4.248a1.651,1.651,0,0,0,1.584-1.8c0-2.088-3.888-3.1-5.544-3.1-6.552,0-7.2,7.416-7.2,12.384H471.6v.72ZM484.2,38.4c1.44.072,1.8,1.368,1.8,2.592V51.36c0,4.536,2.088,8.784,7.2,8.784a10.731,10.731,0,0,0,7.992-4.032,11.773,11.773,0,0,1-6.912,2.808c-4.032,0-5.472-3.384-5.472-6.912V34.8Zm17.064,0c1.44.072,1.8,1.368,1.8,2.592V60l4.608-3.384c-1.512,0-1.8-2.16-1.8-3.312V34.8Zm22.68-2.52c4.032,0,5.472,3.384,5.472,6.912V55.608c0,1.944-.576,3.744-2.592,4.392h8.064c-2.016-.648-2.592-2.376-2.592-4.392V43.44c0-4.608-2.088-8.784-7.2-8.784a10.877,10.877,0,0,0-8.064,4.032A11.773,11.773,0,0,1,523.944,35.88ZM518.04,60c-2.016-.72-2.592-2.376-2.592-4.392L515.376,34.8l-4.608,3.384c1.584,0,1.8,2.16,1.8,3.312V55.608c0,2.016-.5,3.672-2.52,4.392Zm33.408-24.12c4.032,0,5.472,3.384,5.472,6.912V55.608c0,1.944-.576,3.744-2.592,4.392h8.064c-2.016-.648-2.592-2.376-2.592-4.392V43.44c0-4.608-2.088-8.784-7.2-8.784a10.877,10.877,0,0,0-8.064,4.032A11.773,11.773,0,0,1,551.448,35.88ZM545.544,60c-2.016-.72-2.592-2.376-2.592-4.392L542.88,34.8l-4.608,3.384c1.584,0,1.8,2.16,1.8,3.312V55.608c0,2.016-.5,3.672-2.52,4.392Zm18.864-12.024A12.068,12.068,0,0,0,576.576,60.36c3.96,0,8.208-2.232,9.72-6.048-1.512,2.952-6.264,3.96-9.288,3.96-7.056,0-9.576-6.264-9.576-12.312H586.3c0-5.544-3.024-11.088-9.216-11.088C569.088,34.872,564.408,40.128,564.408,47.976ZM576.432,35.3c3.672,0,7.344,2.232,7.344,6.336,0,1.944-1.08,3.6-3.24,3.6H567.5C567.5,40.488,571.464,35.3,576.432,35.3ZM588.1,60h7.992c-2.016-.72-2.592-2.376-2.592-4.392l-.072-33.192L588.816,25.8c1.584,0,1.8,2.16,1.8,3.384V55.608C590.616,57.624,590.112,59.28,588.1,60Zm11.448-7.272V58.7a34.974,34.974,0,0,0,9.432,1.584c4.464,0,8.928-1.872,8.928-7.056,0-8.208-16.2-6.408-16.2-13.824,0-3.024,3.672-4.464,6.264-4.464a9.356,9.356,0,0,1,8.712,6.048V36.24a31.284,31.284,0,0,0-8.5-1.728c-4.248,0-8.28,2.376-8.28,7.056,0,8.5,16.128,7.056,16.128,13.464,0,3.816-4.608,4.464-7.488,4.464C604.3,59.5,600.984,56.544,599.544,52.728Z" transform="translate(589.343 337.105)" fill="#fff"/>
  </g>
  <path id="Path_13600" data-name="Path 13600" d="M112.928,91.655l21.488-26.3-33.525-5.457Z" transform="translate(702.928 469.664)" fill="#006877"/>
  <g id="Group_3870-4" data-name="Group 3870" transform="translate(395.697 277)">
    <g id="Group_3869-4" data-name="Group 3869" clip-path="url(#clip-path-4)">
      <rect id="Rectangle_1399-4" data-name="Rectangle 1399" width="18" height="18" transform="translate(23.651 23.651)" fill="url(#linear-gradient)"/>
    </g>
  </g>
  <g id="Group_3870-5" data-name="Group 3870" transform="translate(395.697 429)">
    <g id="Group_3869-5" data-name="Group 3869" clip-path="url(#clip-path-4)">
      <rect id="Rectangle_1399-5" data-name="Rectangle 1399" width="18" height="18" transform="translate(23.651 23.651)" fill="url(#linear-gradient)"/>
    </g>
  </g>
  <rect id="Rectangle_1435" data-name="Rectangle 1435" width="1500" height="1146" fill="none"/>
</svg>
