<svg xmlns="http://www.w3.org/2000/svg" xmlns:xlink="http://www.w3.org/1999/xlink" width="169.862" height="72.029" viewBox="0 0 169.862 72.029">
  <defs>
    <clipPath id="clip-path">
      <rect id="Rectangle_537" data-name="Rectangle 537" width="60.45" height="72" fill="none"/>
    </clipPath>
  </defs>
  <g id="Group_3922" data-name="Group 3922" transform="translate(10978.523 4917.029)">
    <rect id="Rectangle_1456" data-name="Rectangle 1456" width="169" height="72" transform="translate(-10978.523 -4917)" fill="#fff"/>
    <g id="Group_729" data-name="Group 729" transform="translate(-10869.111 -4917.029)">
      <g id="Group_728" data-name="Group 728" clip-path="url(#clip-path)">
        <path id="Path_819" data-name="Path 819" d="M53.046,72.038A35.557,35.557,0,0,0,50.72,1V64.684h.352A28.13,28.13,0,0,0,50.72,8.427" transform="translate(-26.308 -0.519)" fill="none" stroke="#c89533" stroke-miterlimit="10" stroke-width="1"/>
        <path id="Path_820" data-name="Path 820" d="M50.294,56.191A18.3,18.3,0,1,1,32,37.893a18.3,18.3,0,0,1,18.3,18.3" transform="translate(-7.105 -19.655)" fill="#0b6473"/>
        <circle id="Ellipse_44" data-name="Ellipse 44" cx="3.882" cy="3.882" r="3.882" transform="translate(8.244 10.986)" fill="none" stroke="#c89533" stroke-miterlimit="10" stroke-width="1"/>
        <path id="Path_821" data-name="Path 821" d="M20.8,101.276a9.9,9.9,0,1,1-9.9-9.9A9.9,9.9,0,0,1,20.8,101.276Z" transform="translate(-0.519 -47.397)" fill="none" stroke="#c89533" stroke-miterlimit="10" stroke-width="1"/>
      </g>
    </g>
  </g>
</svg>
