<svg xmlns="http://www.w3.org/2000/svg" width="38.122" height="38.121" viewBox="0 0 38.122 38.121">
  <g id="spotify-logo" transform="translate(0)">
    <g id="Layer_1_1_" transform="translate(0 0)">
      <path id="Path_13815" data-name="Path 13815" d="M19.061,0a19.06,19.06,0,1,0,19.061,19.06A19.061,19.061,0,0,0,19.061,0ZM26.4,28.116a1.44,1.44,0,0,1-.807-.283,19.11,19.11,0,0,0-9.862-2.55,29.828,29.828,0,0,0-6.013.662,5.918,5.918,0,0,1-.94.188,1.189,1.189,0,0,1-1.206-1.2,1.217,1.217,0,0,1,1.037-1.309,31.809,31.809,0,0,1,7.134-.843,21.2,21.2,0,0,1,11.087,2.875,1.269,1.269,0,0,1,.755,1.267A1.187,1.187,0,0,1,26.4,28.116Zm2.077-5.045a1.756,1.756,0,0,1-.955-.331,24.167,24.167,0,0,0-12.1-3.062,24.109,24.109,0,0,0-6.221.8,3.2,3.2,0,0,1-.928.213,1.493,1.493,0,0,1-1.489-1.494A1.516,1.516,0,0,1,7.963,17.6a26.32,26.32,0,0,1,7.516-1.042,26.814,26.814,0,0,1,13.61,3.513,1.557,1.557,0,0,1,.87,1.506A1.483,1.483,0,0,1,28.474,23.071ZM30.839,17.2a1.806,1.806,0,0,1-.982-.294c-3.449-2.069-8.8-3.208-13.982-3.208a29.424,29.424,0,0,0-7.614.915,4.006,4.006,0,0,1-.977.208A1.787,1.787,0,0,1,5.487,13a1.806,1.806,0,0,1,1.334-1.822,32.072,32.072,0,0,1,9.047-1.173c5.6,0,11.486,1.151,15.787,3.677a1.811,1.811,0,0,1,.982,1.731A1.778,1.778,0,0,1,30.839,17.2Z" transform="translate(0 -0.002)" fill="#006675"/>
    </g>
  </g>
</svg>
