<svg id="Group_3962" data-name="Group 3962" xmlns="http://www.w3.org/2000/svg" xmlns:xlink="http://www.w3.org/1999/xlink" width="115" height="49" viewBox="0 0 115 49">
  <defs>
    <clipPath id="clip-path">
      <rect id="Rectangle_1521" data-name="Rectangle 1521" width="115" height="49" fill="none"/>
    </clipPath>
  </defs>
  <g id="Group_3959" data-name="Group 3959">
    <g id="Group_3958" data-name="Group 3958" clip-path="url(#clip-path)">
      <rect id="Rectangle_1520" data-name="Rectangle 1520" width="68" height="10" transform="translate(0.5 0.5)" fill="none" stroke="#cf9303" stroke-miterlimit="10" stroke-width="1"/>
    </g>
  </g>
  <rect id="Rectangle_1522" data-name="Rectangle 1522" width="68" height="10" transform="translate(16.5 10.5)" fill="none" stroke="#cf9303" stroke-miterlimit="10" stroke-width="1"/>
  <g id="Group_3961" data-name="Group 3961">
    <g id="Group_3960" data-name="Group 3960" clip-path="url(#clip-path)">
      <rect id="Rectangle_1523" data-name="Rectangle 1523" width="68" height="10" transform="translate(46.5 28.5)" fill="none" stroke="#cf9303" stroke-miterlimit="10" stroke-width="1"/>
      <rect id="Rectangle_1524" data-name="Rectangle 1524" width="68" height="10" transform="translate(16.5 38.5)" fill="none" stroke="#cf9303" stroke-miterlimit="10" stroke-width="1"/>
      <path id="Path_14186" data-name="Path 14186" d="M99.5,24A11.5,11.5,0,1,1,88,12.5,11.5,11.5,0,0,1,99.5,24" fill="#006675"/>
      <line id="Line_253" data-name="Line 253" x2="15.643" y2="20.625" transform="translate(88 24)" fill="none" stroke="#006675" stroke-miterlimit="10" stroke-width="1"/>
    </g>
  </g>
</svg>
