<svg xmlns="http://www.w3.org/2000/svg" xmlns:xlink="http://www.w3.org/1999/xlink" width="1123.771" height="1040.653" viewBox="0 0 1123.771 1040.653" preserveAspectRatio="none">
  <defs>
    <linearGradient id="linear-gradient" x1="0.877" y1="0.197" x2="0.16" y2="0.89" gradientUnits="objectBoundingBox">
      <stop offset="0" stop-color="#ceb772"/>
      <stop offset="1" stop-color="#9f8844"/>
    </linearGradient>
    <clipPath id="clip-path">
      <path id="Path_14141" data-name="Path 14141" d="M23.651,31.151a7.5,7.5,0,1,0,7.5-7.5,7.5,7.5,0,0,0-7.5,7.5" transform="translate(-23.651 -23.651)" fill="url(#linear-gradient)"/>
    </clipPath>
    <clipPath id="clip-path-2">
      <rect id="Rectangle_537" data-name="Rectangle 537" width="60.45" height="72" fill="none"/>
    </clipPath>
  </defs>
  <g id="Group_3890" data-name="Group 3890" transform="translate(-209.64 -239.851)">
    <g id="Group_730" data-name="Group 730" transform="translate(58.447 -28.72)">
      <circle id="Ellipse_43" data-name="Ellipse 43" cx="22.248" cy="22.248" r="22.248" transform="translate(151.846 286.251) rotate(-22.5)" fill="none" stroke="#c89533" stroke-miterlimit="10" stroke-width="1"/>
    </g>
    <path id="Path_823" data-name="Path 823" d="M747.248,629.461H827.79a49.891,49.891,0,0,1,49.891,49.891V752.4" transform="translate(426.008 -31.83)" fill="none" stroke="#cf9303" stroke-miterlimit="10" stroke-width="1"/>
    <g id="Group_731" data-name="Group 731" transform="translate(1122.775 375.712)">
      <circle id="Ellipse_43-2" data-name="Ellipse 43" cx="22.248" cy="22.248" r="22.248" transform="translate(151.846 286.251) rotate(-22.5)" fill="none" stroke="#c89533" stroke-miterlimit="10" stroke-width="1"/>
      <g id="Group_3888" data-name="Group 3888" transform="translate(173.414 290.792)" clip-path="url(#clip-path)">
        <rect id="Rectangle_1440" data-name="Rectangle 1440" width="15" height="15" transform="translate(0 0)" fill="url(#linear-gradient)"/>
      </g>
    </g>
    <path id="Path_824" data-name="Path 824" d="M531.159,759.638H49.891A49.891,49.891,0,0,1,0,709.747V354.706" transform="translate(543.938 1246.505) rotate(-90)" fill="none" stroke="#cf9303" stroke-miterlimit="10" stroke-width="1"/>
    <path id="Path_822" data-name="Path 822" d="M1075.626,629.461H797.139a49.891,49.891,0,0,0-49.891,49.891v887.513" transform="translate(-389.961 1344.879) rotate(-90)" fill="none" stroke="#cf9303" stroke-miterlimit="10" stroke-width="1"/>
    <g id="Group_729" data-name="Group 729" transform="translate(834.775 1208.504)">
      <g id="Group_728" data-name="Group 728" clip-path="url(#clip-path-2)">
        <path id="Path_819" data-name="Path 819" d="M53.046,72.038A35.557,35.557,0,0,0,50.72,1V64.684h.352A28.13,28.13,0,0,0,50.72,8.427" transform="translate(-26.308 -0.519)" fill="none" stroke="#c89533" stroke-miterlimit="10" stroke-width="1"/>
        <path id="Path_820" data-name="Path 820" d="M50.294,56.191A18.3,18.3,0,1,1,32,37.893a18.3,18.3,0,0,1,18.3,18.3" transform="translate(-7.105 -19.655)" fill="#0b6473"/>
        <circle id="Ellipse_44" data-name="Ellipse 44" cx="3.882" cy="3.882" r="3.882" transform="translate(8.244 10.986)" fill="none" stroke="#c89533" stroke-miterlimit="10" stroke-width="1"/>
        <path id="Path_821" data-name="Path 821" d="M20.8,101.276a9.9,9.9,0,1,1-9.9-9.9A9.9,9.9,0,0,1,20.8,101.276Z" transform="translate(-0.519 -47.397)" fill="none" stroke="#c89533" stroke-miterlimit="10" stroke-width="1"/>
      </g>
    </g>
    <g id="Group_3869" data-name="Group 3869" transform="translate(231.861 261.753)" clip-path="url(#clip-path)">
      <rect id="Rectangle_1399" data-name="Rectangle 1399" width="15" height="15" transform="translate(0 0)" fill="url(#linear-gradient)"/>
    </g>
  </g>
</svg>
