<svg xmlns="http://www.w3.org/2000/svg" width="323.822" height="141.369" viewBox="0 0 323.822 141.369">
  <g id="Group_3883" data-name="Group 3883" transform="translate(-392.605 -189)">
    <path id="Path_14099" data-name="Path 14099" d="M71.691,393.938H51.214A49.891,49.891,0,0,1,1.322,344.046V138.5" transform="translate(321.99 260.691) rotate(-90)" fill="none" stroke="#cf9303" stroke-width="1"/>
    <path id="Path_14100" data-name="Path 14100" d="M70.369,0H49.891A49.891,49.891,0,0,0,0,49.891S0,60.339,0,71" transform="translate(393.105 259.369)" fill="none" stroke="#cf9303" stroke-width="1"/>
  </g>
</svg>
