<svg xmlns="http://www.w3.org/2000/svg" xmlns:xlink="http://www.w3.org/1999/xlink" width="78" height="80" viewBox="0 0 78 80">
  <defs>
    <clipPath id="clip-Artboard_2">
      <rect width="78" height="80"/>
    </clipPath>
  </defs>
  <g id="Artboard_2" data-name="Artboard – 2" clip-path="url(#clip-Artboard_2)">
    <rect width="78" height="80" fill="#F5F5F5" fill-opacity="0"/>
    <path id="Path_14140" data-name="Path 14140" d="M-24264.711-915.854l-13.672,13.826,13.672,13.539" transform="translate(24310.547 942.171)" fill="none" stroke="#cf9303" stroke-linecap="round" stroke-linejoin="round" stroke-width="1"/>
  </g>
</svg>
