<svg xmlns="http://www.w3.org/2000/svg" xmlns:xlink="http://www.w3.org/1999/xlink" width="1314.071" height="194.41" viewBox="0 0 1314.071 194.41">
  <defs>
    <linearGradient id="linear-gradient" x1="0.877" y1="0.197" x2="0.16" y2="0.89" gradientUnits="objectBoundingBox">
      <stop offset="0" stop-color="#ceb772"/>
      <stop offset="1" stop-color="#9f8844"/>
    </linearGradient>
    <clipPath id="clip-path">
      <path id="Path_14142" data-name="Path 14142" d="M23.651,31.151a7.5,7.5,0,1,0,7.5-7.5,7.5,7.5,0,0,0-7.5,7.5" transform="translate(-23.651 -23.651)" fill="url(#linear-gradient)"/>
    </clipPath>
  </defs>
  <g id="Group_3891" data-name="Group 3891" transform="translate(-209.778 -2167.419)">
    <g id="Group_2873" data-name="Group 2873" transform="translate(58.586 1898.849)">
      <circle id="Ellipse_43" data-name="Ellipse 43" cx="22.248" cy="22.248" r="22.248" transform="translate(151.846 286.251) rotate(-22.5)" fill="none" stroke="#c89533" stroke-miterlimit="10" stroke-width="1"/>
      <g id="Group_3889" data-name="Group 3889" transform="translate(173.414 290.792)" clip-path="url(#clip-path)">
        <rect id="Rectangle_1441" data-name="Rectangle 1441" width="15" height="15" transform="translate(0 0)" fill="url(#linear-gradient)"/>
      </g>
    </g>
    <path id="Path_12191" data-name="Path 12191" d="M909.962,629.461H797.139a49.891,49.891,0,0,0-49.891,49.891V1913.81" transform="translate(-389.961 3108.578) rotate(-90)" fill="none" stroke="#cf9303" stroke-miterlimit="10" stroke-width="1"/>
  </g>
</svg>
