<svg xmlns="http://www.w3.org/2000/svg" width="49.654" height="75.211" viewBox="0 0 49.654 75.211">
  <path id="Path_14168" data-name="Path 14168" d="M74.461,0H28.8A28.8,28.8,0,0,0,0,28.8V48.9" transform="translate(0.75 74.461) rotate(-90)" fill="none" stroke="#cf9303" stroke-width="1.5"/>
</svg>
