<svg xmlns="http://www.w3.org/2000/svg" width="574.142" height="404.814" viewBox="0 0 574.142 404.814">
  <g id="Group_3063" data-name="Group 3063" transform="translate(-269.935 -3200.651)">
    <g id="Group_3062" data-name="Group 3062" transform="translate(270.62 3201.151)">
      <path id="Path_12380" data-name="Path 12380" d="M.942,309.152,272.421,470.233a29.928,29.928,0,0,0,30.35.114L571.061,313.881a5.627,5.627,0,0,0,.031-9.7L191.985,79.832a26.141,26.141,0,0,0-26.2-.249L1.513,172.628" transform="translate(-0.897 -76.188)" fill="none" stroke="#cf9303" stroke-miterlimit="10" stroke-width="1"/>
      <path id="Path_12381" data-name="Path 12381" d="M573.692,346v3.617a5.6,5.6,0,0,1-2.73,5.7L302.673,511.788a29.931,29.931,0,0,1-30.351-.115L.89,350.621" transform="translate(-0.89 -112.05)" fill="none" stroke="#cf9303" stroke-linecap="round" stroke-miterlimit="10" stroke-width="1"/>
      <path id="Path_12382" data-name="Path 12382" d="M1.145,295.507l275.6,161.464L543.8,305.232,187.433,98,1.078,203.147" transform="translate(-0.915 -79.085)" fill="none" stroke="#cf9303" stroke-miterlimit="10" stroke-width="1"/>
    </g>
    <ellipse id="Ellipse_43" data-name="Ellipse 43" cx="3.035" cy="1.734" rx="3.035" ry="1.734" transform="translate(310.169 3286.397)" fill="none" stroke="#cf9303" stroke-miterlimit="10" stroke-width="1"/>
  </g>
</svg>
