<svg xmlns="http://www.w3.org/2000/svg" xmlns:xlink="http://www.w3.org/1999/xlink" width="1356" height="999.199" viewBox="0 0 1356 999.199">
  <defs>
    <linearGradient id="linear-gradient" x1="0.877" y1="0.197" x2="0.16" y2="0.89" gradientUnits="objectBoundingBox">
      <stop offset="0" stop-color="#ceb772"/>
      <stop offset="1" stop-color="#9f8844"/>
    </linearGradient>
    <clipPath id="clip-path">
      <rect id="Rectangle_61" data-name="Rectangle 61" width="829.999" height="829.999" fill="none"/>
    </clipPath>
    <clipPath id="clip-path-2">
      <path id="Path_14102" data-name="Path 14102" d="M23.651,34.294A10.643,10.643,0,1,0,34.294,23.651,10.643,10.643,0,0,0,23.651,34.294" transform="translate(-23.651 -23.651)" fill="url(#linear-gradient)"/>
    </clipPath>
  </defs>
  <g id="Group_3879" data-name="Group 3879" transform="translate(-51.5 -1341.947)">
    <g id="Group_61" data-name="Group 61" transform="translate(51.5 1341.947)">
      <rect id="Rectangle_60" data-name="Rectangle 60" width="1310" height="760" transform="translate(45 34.999)" fill="none" stroke="#c89533" stroke-width="2"/>
      <line id="Line_14" data-name="Line 14" x1="0.16" y1="243.534" transform="translate(227.5 384.499)" fill="none" stroke="#c89533" stroke-width="2"/>
      <line id="Line_15" data-name="Line 15" x1="0.337" y2="243.534" transform="translate(251.163 384.499)" fill="none" stroke="#c89533" stroke-width="2"/>
      <line id="Line_16" data-name="Line 16" y1="155" x2="0.16" transform="translate(227.5 35.499)" fill="none" stroke="#c89533" stroke-width="2"/>
      <g id="Group_60" data-name="Group 60">
        <g id="Group_59" data-name="Group 59" clip-path="url(#clip-path)">
          <path id="Path_84" data-name="Path 84" d="M298.991,797.638A91.088,91.088,0,0,1,481.16,796.5" fill="none" stroke="#c89533" stroke-width="2"/>
          <path id="Path_86" data-name="Path 86" d="M392.861,342.691a98.525,98.525,0,1,1-98.526-98.526A98.526,98.526,0,0,1,392.861,342.691Z" transform="translate(-54.924 -54.925)" fill="none" stroke="#c89533" stroke-width="2"/>
          <path id="Path_87" data-name="Path 87" d="M634.042,509.375a20.19,20.19,0,1,1-20.191-20.191A20.191,20.191,0,0,1,634.042,509.375Z" fill="none" stroke="#c89533" stroke-width="2"/>
          <path id="Path_88" data-name="Path 88" d="M634.042,583.359a20.19,20.19,0,1,1-20.191-20.191A20.191,20.191,0,0,1,634.042,583.359Z" fill="none" stroke="#c89533" stroke-width="2"/>
          <circle id="Ellipse_3" data-name="Ellipse 3" cx="142.768" cy="142.768" r="142.768" transform="translate(37.507 286.989) rotate(-45)" fill="none" stroke="#c89533" stroke-width="2"/>
          <path id="Path_89" data-name="Path 89" d="M408.094,469.288V631.469a76.209,76.209,0,0,1-19.121,50.6" fill="none" stroke="#c89533" stroke-width="2"/>
          <path id="Path_90" data-name="Path 90" d="M634.949,445.105V583.216a105.622,105.622,0,0,0,31.9,75.635l23.62,23.023" fill="none" stroke="#c89533" stroke-width="2"/>
          <line id="Line_17" data-name="Line 17" x2="1.437" y2="478" transform="translate(711.063 150.5)" fill="none" stroke="#c89533" stroke-width="2"/>
          <path id="Path_91" data-name="Path 91" d="M652.75,35.5V382.646a87.627,87.627,0,0,1-16.86,51.745,84.717,84.717,0,0,1-68.323,34.9H35.878" transform="translate(9.122)" fill="none" stroke="#c89533" stroke-width="2"/>
          <path id="Path_108" data-name="Path 108" d="M0,0,374.9.716" transform="translate(337.5 287.499)" fill="none" stroke="#c89533" stroke-width="2"/>
          <path id="Path_92" data-name="Path 92" d="M1344.316,340.824l-882.125-1.632A107.885,107.885,0,0,0,354.306,447.077V547.2a121.2,121.2,0,0,1-121.2,121.2H71.374a125.521,125.521,0,0,1-37.058-5.594" transform="translate(10.684 2)" fill="none" stroke="#c89533" stroke-width="2"/>
          <line id="Line_19" data-name="Line 19" x2="95" y2="1" transform="translate(45.5 286.499)" fill="none" stroke="#c89533" stroke-width="2"/>
          <path id="Path_93" data-name="Path 93" d="M274.941,797.638a115.139,115.139,0,0,1,230.032-7.53" fill="none" stroke="#c89533" stroke-width="2"/>
          <path id="Path_95" data-name="Path 95" d="M592.558,469.288V588.3a112.782,112.782,0,0,0,20.931,65.445h0a112.7,112.7,0,0,0,29.175,28.317" fill="none" stroke="#c89533" stroke-width="2"/>
          <line id="Line_20" data-name="Line 20" x2="24.036" transform="translate(227.103 417.296)" fill="none" stroke="#c89533" stroke-width="2"/>
          <line id="Line_21" data-name="Line 21" x2="24.036" transform="translate(227.103 434.066)" fill="none" stroke="#c89533" stroke-width="2"/>
          <line id="Line_22" data-name="Line 22" x2="24.036" transform="translate(227.103 450.835)" fill="none" stroke="#c89533" stroke-width="2"/>
          <line id="Line_23" data-name="Line 23" x2="24.036" transform="translate(227.103 578.842)" fill="none" stroke="#c89533" stroke-width="2"/>
          <line id="Line_24" data-name="Line 24" x2="24.036" transform="translate(227.103 595.612)" fill="none" stroke="#c89533" stroke-width="2"/>
          <line id="Line_25" data-name="Line 25" x2="24.036" transform="translate(227.103 612.381)" fill="none" stroke="#c89533" stroke-width="2"/>
          <path id="Path_96" data-name="Path 96" d="M515.789,635.465v41.924H473.865" fill="none" stroke="#c89533" stroke-width="2"/>
          <line id="Line_26" data-name="Line 26" x1="41.924" y1="41.924" transform="translate(473.865 635.465)" fill="none" stroke="#c89533" stroke-width="2"/>
          <path id="Path_97" data-name="Path 97" d="M35,627.5H297.714a89.841,89.841,0,0,1,64.147,27.091,92.546,92.546,0,0,1,18.529,27.33" transform="translate(10 0.5)" fill="none" stroke="#c89533" stroke-width="2"/>
          <path id="Path_107" data-name="Path 107" d="M0,0,197.064.52" transform="translate(515.543 628)" fill="none" stroke="#c89533" stroke-width="2"/>
          <path id="Path_98" data-name="Path 98" d="M228.252,188.544l432.346.7" fill="none" stroke="#c89533" stroke-width="2"/>
          <path id="Path_99" data-name="Path 99" d="M515.689,466.487a43.6,43.6,0,1,0-87.2,0c0,.342.018.679.026,1.019V628.09h87.029V469.911C515.631,468.78,515.689,467.641,515.689,466.487Z" fill="none" stroke="#c89533" stroke-width="2"/>
          <circle id="Ellipse_5" data-name="Ellipse 5" cx="50.309" cy="50.309" r="50.309" transform="translate(675.983 51.024)" fill="none" stroke="#c89533" stroke-width="2"/>
          <path id="Path_100" data-name="Path 100" d="M555.835,794a113.5,113.5,0,0,1,227,0" fill="none" stroke="#c89533" stroke-width="2"/>
          <path id="Path_101" data-name="Path 101" d="M578.251,794.324a91.088,91.088,0,0,1,182.169-1.14" fill="none" stroke="#c89533" stroke-width="2"/>
          <circle id="Ellipse_6" data-name="Ellipse 6" cx="31.651" cy="31.651" r="31.651" transform="translate(307.27 563.654) rotate(-22.5)" fill="none" stroke="#c89533" stroke-width="2"/>
          <circle id="Ellipse_7" data-name="Ellipse 7" cx="31.651" cy="31.651" r="31.651" transform="translate(185.866 85.646) rotate(-22.5)" fill="none" stroke="#c89533" stroke-width="2"/>
          <line id="Line_28" data-name="Line 28" y1="71.147" x2="71.147" transform="translate(690.719 65.758)" fill="none" stroke="#c89533" stroke-width="2"/>
          <line id="Line_29" data-name="Line 29" x2="71.147" y2="71.147" transform="translate(690.719 65.759)" fill="none" stroke="#c89533" stroke-width="2"/>
          <path id="Path_105" data-name="Path 105" d="M1344.316,340.824l-882.125-1.632A107.885,107.885,0,0,0,354.306,447.077V547.2a121.2,121.2,0,0,1-121.2,121.2H71.374a125.521,125.521,0,0,1-37.058-5.594" transform="translate(10.684 2)" fill="none" stroke="#c89533" stroke-width="2"/>
        </g>
      </g>
    </g>
    <path id="Path_106" data-name="Path 106" d="M34.316,662.813a125.521,125.521,0,0,0,37.058,5.594H233.1a121.2,121.2,0,0,0,121.2-121.2V447.077A107.885,107.885,0,0,1,462.191,339.192L963.7,339.9" transform="translate(62.184 1343.947)" fill="none" stroke="#c89533" stroke-width="2"/>
    <g id="Group_763" data-name="Group 763" transform="translate(179.586 -68.393)">
      <path id="Path_12020" data-name="Path 12020" d="M1178.8,295.921a36.914,36.914,0,1,1-36.914-36.914A36.915,36.915,0,0,1,1178.8,295.921Z" transform="translate(-295.471 1455.611)" fill="none" stroke="#cf9303" stroke-width="2"/>
    </g>
    <path id="Path_12021" data-name="Path 12021" d="M505.007,85.082c-108.779-.09-455.116-.361-455.116-.361A49.891,49.891,0,0,1,0,34.83V0" transform="translate(1025.999 2340.146) rotate(-90)" fill="none" stroke="#cf9303" stroke-width="2"/>
    <path id="Path_12022" data-name="Path 12022" d="M19166.453,3612.146h56.867" transform="translate(-18186.791 -1272)" fill="none" stroke="#cf9303" stroke-width="2"/>
    <g id="Main_Dot" data-name="Main Dot" transform="translate(991.705 1648.846)">
      <g id="Group_3869" data-name="Group 3869" transform="translate(23.651 23.651)" clip-path="url(#clip-path-2)">
        <rect id="Rectangle_1399" data-name="Rectangle 1399" width="21.286" height="21.287" transform="translate(0 0)" fill="url(#linear-gradient)"/>
      </g>
    </g>
  </g>
</svg>
